{
	"fixed": false,		
	"predefinedvariables": null,
	"sealed": false,
	"size": [ 1280, 720 ],
	"controller": "return require 'controllers.dialog'",
	"load": "this\\get('default_dialog')\\load_script(param)\\next()",
    "root_node": {
        "_class": "shametainer",
        "anchor": [ 0, 0 ],
		"behaviors": {
			"clickable": {
				"click": "if not scene\\get('default_dialog').skipping then scene\\get('default_dialog')\\next! else scene\\get('default_dialog')\\stop!"
			},
			"key_interaction": {
				"keypressed": "if params == 'lctrl' and not scene\\get('default_dialog').skipping then scene\\get('default_dialog')\\skip!",
				"keyreleased": "if params == 'lctrl' then scene\\get('default_dialog')\\stop!"
			}
		},
		"mousepressed_pass": true,
        "background_color": "#ccc5b8",
        "location": [ 0, 0 ],
        "name": "dialog",
        "size": [ 1280, 720 ],
        "objects": [
			{
                "_class": "dialog",
                "script": null,
                "name": "default_dialog",
                "location": [ 0, 0 ]
            },
            {
                "_class": "console",
                "name": "default_console",
                "location": [ 4, 32 ],
				"behaviors": {
					"key_interaction": {
						"keyreleased": "if params == '`' then this\\toggle!"
					}
				}
            },
            {
                "_class": "box",
                "anchor": [ 0, 0 ],
                "location": [ 0, 0 ],
                "size": [ 1280, 720 ],
				"@background_image": "scene\\get('default_dialog').background",
                "name": "backimage"
            },
			{
                "_class": "array",
                "anchor": [ 0.5, 1 ],
                "offset": [ 400, 0 ],
				"@array": "return scene\\get('default_dialog').sprites",
                "template": {
                    "_class": "box",
                    "anchor": [ 0, 0 ],
                    "@background_image": "return item",
                    "@visible": "return item ~= nil",
                    "background_size": "contain",
                    "location": [ 0, 0 ],
                    "size": [ 1280, 650 ],
					"--debugmode": true,
                    "name": "sprite_num"
                },
				"autofit": true,
				"--debugmode": true,
                "location": [ 640, 720 ],
                "size": [ 400, 650 ],
                "name": "sprites",
				"absorb": false
            },
            {
                "_class": "array",
                "anchor": [ 0, 0 ],
                "offset": [ 0, 0 ],
				"visible": false,
                "template": {
                    "_class": "box",
                    "anchor": [ 0.5, 0 ],
                    "--backcolor": "#ffffcc66",
                    "@background_image_obj": "return item",
                    "@visible": "return item != nil",
                    "background_size": "contain",
                    "location": [ 0, 0 ],
                    "size": [ 325, 700 ],
                    "name": "cloth_sprite"
                },
                "location": [ 640, 50 ],
                "size": [ 325, 700 ],
                "name": "clothes"
            },
            {
                "_class": "box",
                "anchor": [ 0.5, 1 ],
				"@visible": "scene\\get('default_dialog').message != ''",
                "background_image": "assets/dialog_box.png",
                "background_size": "contain",
                "background_color": null,
                "location": [ 640, 720 ],
                "size": [ 1280, 165 ],
                "name": "dialog_box",
				"--debugmode": true
            },
            {
                "_class": "label",
                "anchor": [ 0, 0 ],
                "@text": "scene\\get('default_dialog').char",
				"@visible": "scene\\get('default_dialog').char != transmanager\\get('Narrator')",
                "@color": "context\\getCharColor(scene\\get('default_dialog').char_bdl)",
                "font": [18, "assets/fonts/DejaVuSans-Bold.ttf"],
				"@font": "{ 18, scene\\get('default_dialog').mod == 'phrase' and 'assets/fonts/DejaVuSans-Bold.ttf' or 'assets/fonts/DejaVuSans-BoldOblique.ttf' }",
                "location": [ 265, 565 ],
                "name": "char",
                "text": "char"
            },
            {
                "_class": "text",
                "anchor": [ 0.5, 1 ],
                "@text": "scene\\get('default_dialog').message",
                "color": "#dddddd",
                "font": [18, "assets/fonts/DejaVuSans.ttf"],
				"@font": "{ 18, scene\\get('default_dialog').mod == 'phrase' and 'assets/fonts/DejaVuSans.ttf' or 'assets/fonts/DejaVuSans-Oblique.ttf' }",
				"size": [750, 130],
                "location": [ 640, 720 ],
                "name": "message",
                "text": "message",
				"--debugmode": true
            },
            {
                "_class": "label",
                "anchor": [ 1, 0 ],
                "@text": "'#' .. scene\\get('default_dialog').position",
				"@visible": "this.scene\\get('default_dialog').skipping",
                "color": "#ffffff",
                "font": [32, "assets/fonts/DejaVuSans.ttf"],
                "location": [ 1275, 0 ],
                "name": "position",
                "text": "position"
            },
            {
                "_class": "label",
                "anchor": [ 0, 0 ],
                "@text": "#scene\\get('default_dialog').menu",
                "color": "#ffffff",
                "font": [42, "assets/fonts/DejaVuSans.ttf"],
                "location": [ 100, 0 ],
				"visible": false,
                "name": "menu_count"
            },
			{
                "_class": "label",
                "anchor": [ 0, 0 ],
                "@text": "this.scene\\get('default_dialog').skipping and transmanager\\get('dialog_skipping') or ''",
                "color": "#ffffff",
                "font": [22, "assets/fonts/DejaVuSans.ttf"],
                "location": [ 25, 25 ],
                "name": "skipping"
            },
            {
                "_class": "array",
                "anchor": [ 0.5, 0.5 ],
                "offset": [ 0, 36 ],
                "@array": "scene\\get('default_dialog').menu",
                "location": [ 640, 360 ],
                "size": [ 1280, 720 ],
				"autofit": true,
				"--debugmode": true,
                "template": {
                    "_class": "box",
                    "anchor": [ 0, 0 ],
					"size": [ 340, 30 ],
					"background_image": "assets/interface/di_menu.png",
					"background_size": "contain",
                    "color": "#dddddd",
                    "behaviors": {
						"clickable": {
							"click": "this.binding_object.action(this.scene\\get('default_dialog'))",
						},
						"hoverable": {
							"background_image": "'assets/interface/di_menu_hover.png'"
						}
					},
                    "location": [ 0, 0 ],
                    "border": true,
                    "name": "menu",
					"objects": [{
						"_class": "label",
						"anchor": [ 0, 0 ],
						"@text": "item.title",
						"--color": "#442211",
						"color": "#d3d3d3",
						"font": [ 14, "assets/fonts/game_of_thrones_kg.ttf" ],
						"location": [ 15, 10 ],
						"border": true,
						"name": "menu_text"
					}],
					"--debugmode": true
                },
                "name": "menu_variants"
            },
			{
                "_class": "label",
                "anchor": [ 1, 0 ],
                "color": "#ffffff",
				"behaviors": {
					"clickable": {
						"click": "this.scene\\get('default_dialog')\\skip!"
					},
					"hoverable": {}
				},
                "font": [18, "assets/fonts/DejaVuSans.ttf"],
                "location": [ 1250, 680 ],
                "name": "skip",
                "@text": "transmanager\\get('dialog_skip')",
				"@visible": "scene\\get('default_dialog').message != ''",
				"--debugmode": true
            }
        ],
        "background_image": null
    }
}