{
    "options": {
        "predefinedvariables": null,
        "load": null,
        "size": [ 1280, 720 ],
        "fixed": false,
        "sealed": false,
        "scene_name": "Привет мир!"
    },
    "root_node": {
        "_class": "shametainer",
        "size": [ 1280, 720 ],
        "location": [ 0, 0 ],
        "background_color": "#ccc5b8",
        "background_image": "assets/cities/kings_landing.png",
        "anchor": [ 0, 0 ],
        "name": "cityoutercontainer",
        "objects": [
			{
                "_class": "box",
                "size": [ 30, 30 ],
                "location": [ 250, 450 ],
                "background_image": "assets/cities/gamedev.png",
                "background_size": "contain",
                "behaviors": {
					"clickable": {
						"click": "konstabel\\entrust('dialog', 'gamedev')"
					}
				},
                "anchor": [ 0, 0 ],
                "name": "Девелоперское"
            },
			{
                "_class": "box",
                "size": [ 50, 80 ],
                "location": [ 520, 235 ],
                "background_image": "assets/cities/tailor.png",
                "background_size": "contain",
				"behaviors": {
					"clickable": {
						"click": "konstabel\\entrust('dialog', 'Портной')"
					},
					"hoverable": {
						"background_image": "'assets/cities/tailor_hover.png'"
					}
				},
                "anchor": [ 0, 0 ],
                "name": "Портной"
            },
            {
                "_class": "box",
                "size": [ 60, 90 ],
                "location": [ 590, 180 ],
                "background_image": "assets/cities/sister.png",
                "background_size": "contain",
				"behaviors": {
					"clickable": {
						"click": "konstabel\\entrust('dialog', 'Монастырь')"
					},
					"hoverable": {
						"background_image": "'assets/cities/sister_hover.png'"
					}
				},
                "anchor": [ 0, 0 ],
                "name": "Монашки"
            },
            {
                "_class": "box",
                "size": [ 80, 80 ],
                "location": [ 770, 495 ],
                "background_image": "assets/cities/corset.png",
                "background_size": "contain",
                "layout": 4,
				"behaviors": {
					"clickable": {
						"click": "konstabel\\entrust('dialog', 'Бордель')"
					},
					"hoverable": {
						"background_image": "'assets/cities/corset_hover.png'"
					}
				},
                "behavior": [ "replace", "#000000", "#ffd470" ],
                "anchor": [ 0, 0 ],
                "name": "Мой бордель",
				"objects": [
					{
						"_class": "label",
						"anchor": [ 0.5, 0.5 ],
						"@text": "context.bordel_power",
						"color": "#000000",
						"font": [24, "assets/fonts/Forum-Regular.otf"],
						"location": [ 20, 60 ],
						"name": "bordel_power"
					}
				]
            },
            {
                "_class": "box",
                "size": [ 95, 95 ],
                "location": [ 610, 433 ],
                "background_image": "assets/cities/tavern.png",
                "background_size": "contain",
                "layout": 4,
				"behaviors": {
					"clickable": {
						"click": "konstabel\\entrust('dialog', 'Таверна')"
					},
					"replacable": {
						"from": "#000000",
						"to": "#ffd470"
					},
					"hoverable": {
						"background_image": "'assets/cities/tavern_hover.png'"
					}
				},
                "anchor": [ 0, 0 ],
                "name": "Таверна"
            },
            {
                "_class": "box",
                "size": [ 85, 85 ],
                "location": [ 680, 314 ],
                "background_image": "assets/cities/anchor.png",
                "background_size": "contain",
				"behaviors": {
					"clickable": {
						"click": "konstabel\\entrust('dialog', 'Мастер над кораблями')"
					},
					"replacable": {
						"from": "#000000",
						"to": "#ffd470"
					},
					"hoverable": {
						"background_image": "'assets/cities/anchor_hover.png'"
					}
				},
                "anchor": [ 0, 0 ],
                "name": "Порт"
            },
            {
                "_class": "box",
                "size": [ 65, 65 ],
                "location": [ 430, 359 ],
                "background_image": "assets/cities/store.png",
                "background_size": "contain",
				"behaviors": {
					"clickable": {
						"click": "konstabel\\entrust('dialog', 'Ювелирная')"
					},
					"replacable": {
						"from": "#000000",
						"to": "#ffd470"
					},
					"hoverable": {
						"background_image": "'assets/cities/store_hover.png'"
					}
				},
                "anchor": [ 0, 0 ],
                "name": "Ювелирка"
            },
            {
                "_class": "box",
                "size": [ 70, 70 ],
                "location": [ 491, 590 ],
                "background_image": "assets/cities/blacksmith.png",
                "background_size": "contain",
				"behaviors": {
					"clickable": {
						"click": "konstabel\\entrust('dialog', 'Кузница')"
					},
					"replacable": {
						"from": "#000000",
						"to": "#ffd470"
					},
					"hoverable": {
						"background_image": "'assets/cities/blacksmith_hover.png'"
					}
				},
                "anchor": [ 0, 0 ],
                "name": "Кузня"
            },
			{
                "_class": "box",
                "size": [ 70, 70 ],
                "location": [ 630, 580 ],
                "background_image": "assets/cities/bordel_finger.png",
                "background_size": "contain",
				"@visible": "context.quests.Grand_opening.completed == true",
				"behaviors": {
					"clickable": {
						"click": "konstabel\\entrust('dialog', 'У мизинца')"
					},
					"hoverable": {
						"background_image": "'assets/cities/bordel_finger_hover.png'"
					}
				},
                "anchor": [ 0, 0 ],
                "name": "Бордель мизинца"
            },
			{
                "_class": "box",
                "size": [ 65, 65 ],
                "location": [ 291, 390 ],
                "background_image": "assets/cities/cave.png",
                "background_size": "contain",
				"@visible": "context.quests.Agressive_expansion.completed == true",
				"behaviors": {
					"clickable": {
						"click": "konstabel\\entrust('dialog', 'Пещера')"
					},
					"replacable": {
						"from": "#000000",
						"to": "#ffd470"
					},
					"hoverable": {
						"background_image": "'assets/cities/cave_hover.png'"
					}
				},
                "anchor": [ 0, 0 ],
                "name": "Пещера"
            },
			{
				"_class": "box",
                "size": [ 1280, 720 ],
                "background_image": "assets/night_overlay.png",
				"@visible": "context\\getDayPartMnemo! == 'night'"
			},
			{
                "_class": "grid",
                "size": [ 260, 350 ],
                "location": [ 1090, 40 ],
				"padding": [ 54, 20, 23, 20 ],
                "background_color": "black",
                "background_size": "contain",
				"@array": "context.chars.Player.items",
				"@visible": "scene.show_inventory",
				"background_image": "assets/interface/ma_inventory.png",
				"template": {					
					"_class": "box",
					"size": [ 50, 50 ],
					"location": [ 0, 0 ],
					"--@background_color": "item.item.color",
					"@background_image": "item.item.image",
					"background_size": "contain",
					"--background_image": "assets/inventory_slot.png",
					"anchor": [ 0, 0 ],
					"name": "item",
					"--debugmode": true,
					"objects": [{
						"_class": "label",
						"location": [ 0, 0 ],
						"anchor": [ 1, 1 ],
						"color": "#ffccff",
						"@text": "item.count",
						"@visible": "item.item.stock",
						"font": [16, "assets/fonts/DejaVuSans.ttf"],
						"init" : "this.location = { this.owner.width - 4, this.owner.height }",
						"--debugmode": true
					}]
				},
                "anchor": [ 1, 0 ],
                "name": "Инвентарь",
				"--debugmode": true
            },
			{
				"_class": "box",
				"size": [ 472, 350 ],
				"location": [ 1090, 40 ],
				"name": "questlog_outer",
				"anchor": [ 1, 0 ],
				"--debugmode": true,
				"@visible": "scene.show_questlog",
				"objects": [
					{
						"_class": "box",
						"size": [ 472, 350 ],
						"--location": [ 1090, 40 ],
						"padding": [ 65, 34, 25, 34 ],
						"offset": [ 0, 82 ],
						"background_color": "black",
						"background_size": "contain",
						"background_image": "assets/interface/ma_questlog.png",
						"objects": [{					
							"_class": "box",
							"size": [ 405, 80 ],
							"objects": [
								{
									"_class": "text",
									"color": "#ddeedd",
									"location": [ 54, 75 ],
									"size": [ 365, 45 ],
									"font": [ 22, "assets/fonts/Forum-Regular.otf" ],
									"@text": "context.quest and transmanager\\get(context.quest.key) or ''",
									"--debugmode": true,
									"name": "xorg1"
								},
								{
									"_class": "text",
									"color": "#561D0A",
									"location": [ 55, 76 ],
									"size": [ 365, 45 ],
									"font": [ 22, "assets/fonts/Forum-Regular.otf" ],
									"@text": "context.quest and transmanager\\get(context.quest.key) or ''",
									"--debugmode": true,
									"name": "xorg2"
								}
							]
						}, {
							"_class": "box",
							"size": [ 60, 60 ],
							"location": [ 400, 285 ],
							"@visible": "context.quest and context.quest.value.completed",
							"anchor": [ 0.5, 0.5 ],
							"background_size": "contain",
							"background_image": "assets/interface/ma_questlog_mark.png"
						}],
						"anchor": [ 0, 0 ],
						"name": "questlog"
					},
					{
						"_class": "box",
						"size": [ 25, 25 ],
						"location": [ 70, 15 ],
						"anchor": [ 0, 0 ],
						"background_image": "assets/interface/left.png",
						"behaviors": {
							"clickable": {
								"click": "context\\prev_quest!"
							},
							"hoverable": {}
						},
						"--debugmode": true
					},
					{
						"_class": "box",
						"size": [ 25, 25 ],
						"location": [ 402, 15 ],
						"anchor": [ 1, 0 ],
						"background_image": "assets/interface/right.png",
						"behaviors": {
							"clickable": {
								"click": "context\\next_quest!"
							},
							"hoverable": {}
						},
						"--debugmode": true
					},
					{
						"_class": "grid",
						"size": [ 402, 7 ],
						"location": [ 35, 328 ],
						"methods": {
							"refresh": "this.capacity = #context\\get_quests!; this.grid_columns = this.capacity; this.grid_fixed_height = 5; this\\updateBinding!"
						},
						"@array": "{}",
						"@visible": "#context\\get_quests! > 1",
						"capacity": 5,
						"--debugmode": true,
						"name": "paginator",
						"template": {
							"_class": "box",
							"@background_color": "this.binding_index == context.position and '#eba01d' or '#22222244'",
							"name": "pages_item"
						}
					},
					{
						"_class": "label",
						"@text": "transmanager\\get('city_questlog')",
						"anchor": [ 0.5, 1 ],
						"location": [ 236, 32 ],
						"color": "#ddddaa",
						"font": [16, "assets/fonts/DejaVuSans.ttf"],
					}
				]
			},
			{
				"_class": "box",
                "size": [ 900, 80 ],
                "location": [ 640, 0 ],
				"anchor": [ 0.5, 0 ],
                "@background_image": "'assets/interface/ma_toppanel_' .. context\\getDayPartMnemo! ..'.png'",
				"background_size": "contain-top",
				"--debugmode": true
			},
			{
                "_class": "box",
                "size": [ 70, 70 ],
                "location": [ 185, -15 ],
                "background_image": "assets/daypart1.png",
                "@background_image": "'assets/daypart' .. context.daypart .. '.png'",
                "background_size": "contain",
				"behaviors": {
					"clickable": {
						"click": "context\\nextDayPart()"
					},
					"hoverable": {}
				},
                "anchor": [ 0, 0 ],
                "name": "Солнце и луна"
            },
			{
                "_class": "label",
                "color": "#ffeeee",
                "background_size": "contain",
                "location": [ 290, 6 ],
                "font": [ 20, "assets/fonts/pt_astra_serif_regular.ttf" ],
                "@text": "transmanager\\get('city_day') .. ' ' ..  context.day",
                "anchor": [ 0.5, 0 ],
                "name": "День"
            },
			{
                "_class": "label",
                "color": "#caf9f6",
                "location": [ 325, 11 ],
                "font": [ 13, "assets/fonts/game_of_thrones_kg.ttf" ],
                "@text": "context\\getDayPartName()",
                "anchor": [ 0, 0 ],
                "name": "Время суток"
            },
			{
				"_class": "label",
				"anchor": [ 0.5, 0 ],
				"@text": "transmanager\\get('attribute_authority') .. ' ' .. context.chars.Player.authority",
				"color": "#ddddaa",
				"font": [16, "assets/fonts/DejaVuSans.ttf"],
				"location": [ 560, 9 ],
				"name": "authority"
			},
			{
				"_class": "label",
				"anchor": [ 0.5, 0 ],
				"@text": "transmanager\\get('attribute_gossip') .. ' ' .. context.chars.Player.gossip",
				"color": "#ddddaa",
				"font": [16, "assets/fonts/DejaVuSans.ttf"],
				"location": [ 680, 9 ],
				"name": "gossip"
			},
			{
				"_class": "label",
				"anchor": [ 0.5, 0 ],
				"@text": "transmanager\\get('attribute_money') .. ' ' .. context.chars.Player.money",
				"color": "#ddddaa",
				"font": [16, "assets/fonts/DejaVuSans.ttf"],
				"location": [ 800, 9 ],
				"name": "money"
			},
			{
                "_class": "box",
                "size": [ 40, 40 ],
                "location": [ 1040, -2 ],
				"anchor": [ 1, 0 ],
                "background_image": "assets/interface/ma_inventorybanner.png",
				"behaviors": {
					"clickable": {
						"click": "scene.show_inventory = not scene.show_inventory; scene.show_questlog = false"
					},
					"hoverable": {}
				},
                "name": "inventorybanner",
				"visible": false,
				"--debugmode": true
            },
			{
				"_class": "box",
                "size": [ 40, 40 ],
                "location": [ 1085, -1 ],
				"anchor": [ 1, 0 ],
				"background_image": "assets/interface/ma_questlogbanner.png",
				"behaviors": {
					"clickable": {
						"click": "scene.show_questlog = not scene.show_questlog; scene.show_inventory = false; context\\get_quest!; scene\\get('paginator').methods\\refresh!"
					},
					"hoverable": {}
				},
				"name": "questlogbanner",
				"--debugmode": true
			}
        ]
    }
}