neaK1w;Inizia partita 
ZHbnIX;Compro questo bordello! 
S2yF4u;Come dici tu, maestro! 
GD5LWc;Devo spogliarmi già? 
p7c0Ei;Gestione 
8Da6vP;Cabinet Manager 
39HHWi;Guardaroba 
Y1bkJY;Vai alla mappa 
ZUumSX;Inizio 
p4xM7E;Popola ragazze 
KsEVlS;Gioca a Kaivassk 
Y03jVh;Little Birds 
CdjM1J;Gestione 
X0nZwj;Guadalupa 
eWEwto;Galleria 
scChLx;Realizzazioni 
QfXymw;Dammi i soldi (+10000) 
JSynAc;Rumors (+5) 
7tKEMv;Impatto (+50) 
hJspsO;Visualizza tutte le ragazze 
OkuPxO;Scambio 
21KzDC;Vai alla scheda 
irUYN4;Condivisione dei menu 
l77UuR;Modifica 10 influenze su 1 udienza 
o2fpsE;Scambia 50 influenze su 5 voci 
HhwXGY;Scambia 100 impatto su 10 audizioni 
1JieMa;Esci dalla mappa (imp = {context.authority}, case = {context.gossip}) 
4XCqJu;Inizio 
GVTDKG;Nel prologo di "Shame of Thrones" 
RD70FL;O vecchi dèi, è ancora un bel ragazzo... Spero che stia bene 
NpGpWR;Oh sire, finalmente sei tornato in te! 
tDnAqi;Come sei arrivato così a nord? 
JbzCBm;Sì, mia signora, vengo da Dorn, ho deciso di vedere sette regni dopo la fine della guerra e sono venuto a vedere il tuo meraviglioso margine settentrionale 
pvxGwS;Qualche tempo dopo... 
vJryM8;Probabilmente è già molto tardi, mia signora. Scusa, ti annoio già. 
QL0vlv;Oh no, no, questo tu. In realtà, sono contento che tu sia venuto da noi a Winterfell in quel momento. Il tuo soggiorno qui illumina la mia vita nel castello in assenza di Eddard. 
9NWHfP;Quindi, devo ringraziarti. 
BHJh8M;Oh mio signore... No, questo è sbagliato... Non dovremmo... 
wMVpsU;Qualche tempo dopo... 
68wAvS;È tempo di forgiare questo ferro mentre è rovente
Eyoe36;Ti piace? Non l'ho mai fatto con gli uomini... 
RKQ53x;Sì, entra in me. Se Eddard scopre che ci ucciderà entrambi. 
YRu9EU;Circa sette! 
UaINCk;È doloroso e piacevole allo stesso tempo... 
iqQkfZ;Sposta, non fermarti... 
vMZLN7;Ma i giorni di dissolutezza di Catelyn Stark sono finiti... 
6VIXvG;Dopo aver visitato il nord, sei tornato a Dorn. 
uBUKhD;Diversi inverni sono passati da allora. 
yhFU8Z;Saluti, amico mio! Quanto tempo non abbiamo visto... 
gM9df3;Sai, Altezza. Una tua parola e sarò nel tuo palazzo il giorno dopo. 
d8Ox60;Da quanto tempo hai iniziato a contattarmi così ufficialmente? Ricordo che nella mia giovinezza mi hai girato molto più facilmente. 
ouCefA;Ora siamo cresciuti, tu sei l'erede al trono Dorn, e devo mostrarti il ​​dovuto rispetto per te in modo da non perdere credibilità agli occhi delle altre persone. 
jNb9kR;Non mi importa delle opinioni degli altri. La mia autorità non dipende da quanti vecchi amici si rivolgono a me. 
wMu2Uj;Forse hai ragione, mio ​​principe. Ma scommetto che mi hai trascinato lontano dai miei bordelli, non solo perché ti sei perso il tuo vecchio amico? 
Gh7rJl;Sì, siediti, versati del vino. Ho un incarico importante per te. 
zIXTPL;Tutto ciò che desideri, mio ​​principe. 
LCLsUs;Dopo una lunga pausa, le notizie cominciarono ad arrivare una dopo l'altra dal porto reale. 
YxfUcg;John Arren è morto, o è stato aiutato a morire. Non importa, in ogni caso, l'ubriacone Robert non sarà in grado di gestire correttamente i sette regni. Molto probabilmente, lui stesso capisce questo, e per questo motivo sta trascinando il suo amico del cuore Ned Stark dal nord, facendogli la mano destra. 
LiTFfI;Ma non saprei male la famiglia dei Lannister se semplicemente davano il potere ai nordici. La regina Cersei farà di tutto per rimuovere Stark dalla capitale e prendere il potere nelle sue mani. Da parte sua c'è la perfidia femminile e l'oro di suo padre. 
TzuMjr;Sembra che stia cominciando a capire dove conduci, mio ​​principe. 
CDqSoi;Non hai mai dubitato della tua intuizione. Cersei è una donna e una donna è bella. E il principale esperto sulla conquista delle donne abbiamo te. 
8MNDOK;Sì, e la figlia maggiore di Ned Stark è quasi cresciuta, e dicono che è molto simile a sua madre. E tu sembri l'unico che è riuscito a girare per Catelyn Stark, anche se il mignolo non ha funzionato. 
4hug7g;Quindi devi avere la certezza di entrambi, ricevere tutte le notizie da loro e tenermi informato. Dorn ricorda cosa ha fatto il Lannister a mia sorella, quindi dobbiamo essere consapevoli di tutti gli eventi e aiutare i Lannister a scomparire. 
gVCeDO;Ma non è facile romperli, quindi fai attenzione. Il mignolo e il ragno giocheranno contro di te, uno ti odia per comunicare con Catelyn, l'altro semplicemente non ci si può fidare. Alla prima occasione, si libereranno di te, dato che sei una figura pericolosa sulla loro scacchiera. 
Ez4mNE;Non preoccuparti, mio ​​principe, farò tutto quanto è in mio potere. 
JXltgb;Oh sì, ho quasi dimenticato. Ricordo come non ti piacciono le mani sporche. Pertanto, nel porto sarà sempre una delle mie figlie, Obara, Nimeria o Tiena, le troverai nel setto tra le sorelle silenziose. Si travestono e non causano sospetti. 
0SNfT1;Se c'è un bisogno urgente di rimuovere qualcuno, basta rivolgersi a lei e lei farà tutto il lavoro sporco. 
ZDBlf3;Bene, grazie al mio principe. 
8cwV2f;Lasciami dire addio, ora devo arrivare al porto reale il prima possibile. 
oVT0XF;Buona fortuna amico mio. 
jTvg6V;Inizia partita 
6AKkU0;Accidenti! Apri la porta di qualcuno! Dove sei andato tutti dannatamente bastardi ?! Hey! Il fuoco è già molto vicino sblocca la porta! 
lTYEkD;Cosa? Dov'è il fuoco e perché è così buio? Sono morto? 
n6pKAG;Vai a Royal Harbour 
Hu4h4S;Quest: Grand Opening 
tGcnAv;Vai alla mappa 
HgIkvi;Quest: E su questa pietra... Parte 1 
3zwNHy;Vai alla mappa 
MSdgBx;Comprare un bordello 
pEoH86;Allooo, c'è qualcuno? 
wKOQGE;... 
gqO8G0;Hmm, i miei postriboli in Dorn sono più accoglienti nei confronti dei clienti. 
oRm2M5;Saluti, Milord, mi dispiace, siamo chiusi. 
8At7NJ;I lavoratori non hanno avuto il tempo di rimuovere il segno all'esterno. 
7nGVQC;Sei chiuso? 
gyeC9l;Sì, sfortunatamente nessuno può competere con Lord Baelish nel porto reale. 
9BaXXU;È un uomo d'affari e un leader molto capace, inoltre usa la sua posizione nel piccolo consiglio. 
FlsUOM;Quindi dobbiamo chiudere. 
KDCwWc;Che coincidenza fortunata... 
f9VbsD;Scusa, non è così bello che tu abbia chiuso, ma al fatto che ho bisogno della mia stanza nel porto reale 
XXq0Kb;Sei interessato ai miei locali? 
9mHgiY;Oh mio signore, perché siamo qui, vado nel mio ufficio. 
8MffJI;Siediti, mio ​​signore, vi verso del vino. 
foH5TI;Oh, non preoccuparti. Vengo dal mandrino e ci siamo rovinati con il vino lì. 
ICgwkw;Quindi dì che ho tutta l'attenzione. 
VpUYmf;Vedi, ho bisogno di stabilirmi nel porto reale per un po '. 
brSGWT;Ho una mia attività che vorrei nascondere dalle orecchie degli agenti di Lord Varys e di tutte le locande e gli hotel sotto la sua supervisione. 
JHctE8;E la tua premessa è stata così ben messa in vendita. 
p9hmll;Sì, mio ​​signore, se vuoi comprarlo, appenderò il lucchetto domani e finalmente farò rimuovere questi indizi dal segno. 
aJPPyO;Nessuno saprà che ti sei sistemato qui. 
CsXDkR;Sarebbe meraviglioso, mia signora. 
lPrUYE;Col tempo, naturalmente, rivelerò la mia identità in un castello rosso, ma prima devo preparare un posto sicuro. 
RGjhPX;A proposito, quanto ti piacerebbe per il tuo bordello? 
De9Cxf;Non ci ho pensato... Devo condurre un audit... 
OiTrQu;Novecento draghi d'oro ti stanno bene? 
AI32rG;Ovviamente mio signore! Sì, mio ​​signore! O sette dei, sei molto generoso... 
pqVLQV;Ma devi capire a mia signora che non solo l'edificio è incluso nel prezzo, ma anche la privacy. 
D7hUwJ;Milord, non dovresti nemmeno parlarne. 
mkTU7o;Hai salvato una signora da una situazione difficile e ora sono tuo amico in questa città malvagia. 
AbVi2v;Incredibilmente mia signora. 
h8ynaJ;Prendi i soldi, e andrò a dormire con il tuo permesso. 
tZrnBl;E sulla pietra sem1 
EG9ZTY;Buongiorno mia signora. 
Mg2gVN;Mio signore! Ti saluto 
tbQFhY;Spero tu abbia abbastanza sonno? Ora ordino di servirti la colazione. 
be60v6;Oh, non preoccuparti. Mi piacerebbe parlare di affari. 
rSoyJW;Ho intenzione di riaprire il tuo bordello e di farti controllare. Sei una donna capace e hai anche esperienza in questa materia. 
HXfwT0;Ma prima di aprire abbiamo bisogno di ricostruire la sala comune. 
37AKNB;Se vogliamo competere con Lord Baillish, dobbiamo soddisfare alcuni criteri. 
CJAUvm;Penso che tu abbia ragione, mio ​​signore, ho pensato alla ricostruzione, ma questo richiede molti soldi. 
Ddm2Md;Per te, capisco che il denaro non è un problema, quindi posso darti alcuni consigli utili. 
QQ9Lbd;I marinai dell'est arrivano spesso alla taverna del porto, possiamo assumerli per creare lo stile desiderato. 
QX6Els;Questo ci distinguerà dalle istituzioni di Lord Beilish. Ma per questo dovrai acquistare materiali esotici nel porto e ordinare prodotti in metallo da un fabbro. 
QM8Scf;Inoltre, abbiamo bisogno di gioielli con pietre preziose e argento, ti darò l'indirizzo di un buon gioielliere. 
p1T6OL;Non preoccuparti, ho compilato elenchi di tutto ciò che è necessario, eccoti qui. 
xSfyMV;Vedo che capisci davvero il tuo lavoro, Madame. 
5LRABH;Bene, il tempo stringe, è ora di andare nella tua lista. 
i2igZJ;Milord! 
gkLK5b;Ho effettuato ordini di tutto ciò che è necessario. 
z4WrwM;Il fabbro durante la settimana farà l'intera lista, mentre tu vai al porto e raccogli materiali. 
jRkXxL;Domani puoi andare a ritirare il primo lotto. Il nome del ragazzo è Gendry, dimmi che sei da me. 
tztfsv;si, mio ​​signore! 
vhWYva;Non ho niente da pagare agli operai. 
oCYsql;Spendo oro più velocemente di quanto possa guadagnare... capitale, una sola parola. 
biKs1Q;In ogni caso, per continuare la tua attività devi procurarti dell'oro. 
JZg2Kw;La ricostruzione è finita, mio ​​signore! 
EPDlp0;Prendi il lavoro. 
8CclCX;Bene, cosa dici, signora? 
J7z5Li;Ti piace il risultato? 
Pywvft;Oh sì, questo posto ha richiesto a lungo un buon aggiornamento. 
QzuqW5;E con le tue risorse è diventato possibile e ora siamo davvero ad un livello più alto dei bordelli del Pinky. 
NOfT7k;Bene, se a tutti piace, puoi pensare che il lavoro sia finito. 
dq2M9V;Con il tuo permesso, mio ​​signore, ci inchineremo. 
8igj26;Ora è il momento di fare le ragazze... 
ffnVwq;Signora, benvenuto. Devo scegliere una delle ragazze, corsia. 
EQNJxq;Bene, la chiamerò ora. 
7qzNxu;Lane, travestimento e vieni giù da me. Dobbiamo andare in città, andare da qualche parte. 
NpRBmF;Ho finito, piccola, ora le tue ragazze sono pronte per la scoperta. 
NKNy8l;Grazie, piccola. 
HjaPdM;Oh, no grazie, stai ancora lavorando ai tuoi debiti. 
N5b4w1;Signora, questo è il meglio che potrei ottenere. 
VcydOY;Ho anche parlato con Tiena, lei è d'accordo e si unisce a noi. 
VGybR6;Ottimo! Tutto è quasi pronto. Io e tutte le ragazze a tua disposizione. 
wcFHlj;Devi andare in ufficio e assegnarci in determinati posti, in modo che tutti gli ospiti siano soddisfatti. 
3Eq1kx;Ricorda che gli ospiti più numerosi escono, essendo al massimo dell'eccitazione, il che significa che hai bisogno di almeno una ragazza sulla pista da ballo e una per incontrare gli ospiti. 
XMC8E0;Metterei Elvira su un palo, Tiena le ha insegnato un piccolo movimento e io e Lane potremmo placare i clienti nelle stanze private. 
WOBnD0;Tiena come dipendente non permanente potrebbe incontrare gli ospiti, ma è una ragazza universale, quindi farà fronte a tutto. 
OFv5ID;In ​​ogni caso, tu sei il padrone e tu lo disponi. Da ora in poi il mio ufficio è tuo. 
o7sGM0;Grazie signora, penso che possiamo gestirlo perfettamente. 
PMrpIJ;Non ho ancora affari qui... 
v3Wyfd;Ho ancora molto da fare. 
b0YbUH;Vai alla mappa 
4TtYmY;Menu Bordello 
Gi6I9A;Gestione 
mK2Cp5;Cabinet 
DMMIDU;Vai alla mappa 
sIci1N;Gabinetto 
bkiVnr;Realizzazioni (?) 
McOphU;Galleria (?) 
nZAR22;Corridoi segreti (?) 
tbE59a;Ritorno alla sala 
sh8xep;Inaugurazione 
TeCoQ7;Signora, penso che siamo pronti per l'apertura. 
WeNHd3;Sì, mio ​​signore, ma temo che le due ragazze non saranno abbastanza e non hanno ancora molta esperienza. 
ODga5J;Forse qualcuno che posso assumere, ma ancora la domanda potrebbe essere fuori scala. 
hOHLRx;Potresti parlare con la tua amica Tiena, può aiutarci? 
ckYnPK;Bene, cercherò di convincerla. 
Kz7Ulz;Mignolo 
2jxt9H;Qualche tempo dopo l'apertura... 
l0YVWx;Circa sette, il mignolo stesso mi ha concesso la scoperta
9TCTGu;Buona sera, Lord Belylish! Che bella sorpresa Seguire lo sviluppo della concorrenza nel mercato? 
xsYm5Y;Saluti mio signore. Oh sì, non lascio nulla senza attenzione, e soprattutto ciò che minaccia la mia attività in città. 
CiYKxT;Questo è un grande elogio, signore. Se Lord Beylish stesso afferma che il mio establishment minaccia i suoi affari, allora tutto è a un livello accettabile. Posso usare le tue parole come raccomandazioni? 
VwxTNj;Lasciamolo, mio ​​signore. Ho sentito della tua reputazione a Dorn, ma non sapevo che avresti deciso di espandere la tua influenza sul porto reale. 
z5F1jw;In realtà, no, questo è solo un posto dove posso passare la notte e condurre i miei affari nel porto. E il bordello è solo un'atmosfera familiare per me, perdona che è coinciso con la tua occupazione. 
9KGPxL;Bene, altrimenti penserei che tu abbia deciso di spingermi sul mercato e, onestamente, ammettere di competere con te, non ho alcun desiderio. 
NnRqSM;È bello che te ne renda conto, Messire. 
euCfcr;In realtà, sono venuto non solo per apprezzare l'alto livello della tua istituzione e darti credito. 
6QkbWn;Questi posti non sono aperti solo per guadagnare denaro o creare un'atmosfera accogliente. In posti di questo livello arriveranno persone ricche e potenti. 
3mKmUh;Chiedi servizi non del tutto tradizionali, e in cambio aiutarti. Avrai una grande influenza nella città, mio ​​signore. 
SUuJcB;Oh, certamente conto su di esso, Lord Baelish. Non tutti da soli raccolgono i benefici. 
xjznMv;Sai, vorrei ancora essere l'unico. Sei un uomo d'affari, mio ​​signore, e io sono venuto con una proposta commerciale. 
Fjzn0N;Se sei pronto a condividere la tua influenza, sono pronto ad aiutarti con problemi delicati che non possono essere risolti con denaro. 
cnVTlC;Sai, vado in un piccolo consiglio e sono un maestro a moneta. La regina reggente non mi piace molto, ma ascolta il mio consiglio. 
KeaA3W;Quindi puoi risolvere tutti i tuoi affari senza rovinare i rapporti con nessuno. Pensa, mio ​​signore. 
xeHIGK;Se ti compiaccio, sarò disponibile nel mio bordello centrale. Lasciami uscire. 
EtOQBC;Sly bastardo...
TGdyUA;Non ho avuto il tempo di mettermi comodo, ma lui vuole già prendere il controllo di me
u0p0XJ;In ogni caso, penso che sia impossibile fare a meno del suo aiuto, quindi dovrò condividere alcune delle risorse
dxSAfq;Corridoi segreti 
qPDTls;Mentre cammini per l'ufficio, noterai qualche strano davanzale sul muro accanto al caminetto. 
lztLnd;Hmm .. Sembra di aver visto i like in Essos. 
N4krrI;Sembra essere premuto bruscamente... 
JjEUiy;Fai bruscamente clic sulla sporgenza e lui cede. 
roYLTe;Il muro dietro il camino si apre nel mezzo e dietro di esso si può vedere il vuoto. 
K8u6f0;Spegni rapidamente il fuoco, spingi le porte e vai dentro. 
qsiacx;Wow... ecco i corridoi segreti. 
ld6Fyc;È interessante notare che questa è l'idea di Madame Rosie o dei precedenti proprietari... 
xI2qQC;Devi andare e vedere dove conducono. 
1XpYHJ;Si entra nel corridoio e, cercando di non fare rumore, cammina tranquillamente lungo le colonne del corridoio. 
6rupeV;Dietro una delle colonne sentiamo una voce. 
UBAjp7;Avvicinandoti puoi vedere lo spazio attraverso il quale puoi guardare nella stanza e la stessa proiezione del caminetto per entrare dentro. 
vZuJ2K;Apparentemente il precedente proprietario era un grande amante della leva... 
Lr5JxN;Spia 
HB19NW;Oh si, Rosie. Come hai perso questo vestito? 
1Y3p7v;Dovresti assolutamente parlare con il mio signore dei nuovi servizi in un bordello... 
VlWw7O;Non ho frustato il culo elastico per così tanto tempo 
kfl2wi;E non allungare la vergine fanciulla ano... 
YCeXyO;La signora sembra avere una vita segreta che non conosco... 
Q6zlrQ;Scoperte interessanti, non più desideroso di vedere altre stanze. 
NdgC6c;Vai avanti e ascolta la giocosa risata femminile. 
NmWrQS;Sfortunatamente, il divario è coperto da una sorta di arredamento, ma puoi facilmente riconoscere la voce di Tiena. 
nsk3A6;Ti sei mancato, la mia troia? 
Stya2Q;Oh sì, non più desideroso di leccare la tua fessura pelosa. 
HxCwAw;Il tuo signore non sarà geloso di te? 
HVhQPu;No, non sono sua moglie. 
CeJ2MF;Scendi già, altrimenti ho già iniziato a correre giù i miei fianchi... 
pOKWHf;Tyna, ecco una cagna, ci si diverte senza di me... 
ktEFRM;Beh, no, non mi mancherà questo... 
Jyarnl;Premi bruscamente sulla sporgenza, il muro si apre leggermente e entri dentro. 
SAM9LS;E da dove vieni? 
uyKEU1;Sembra che non ti abbia chiamato alla mia festa 
5Nranf;Non potevo mancare ad un tale divertimento. 
oyKX35;Inoltre, non abbiamo finito le nostre avventure nel monastero. 
xhNlYF;Bene, bene, cagna rapidamente in ginocchio. 
UAT2OM;oo, com'è maleducato, mi eccita così... 
6MR3df;Dai, piccola, ripeti la tua impresa. 
5K6aXz;Ricorda, solo una lingua sporca, senza bocca. 
KUY07M;Oh sì, quanto è dolce il tuo uccello, piccola 
RUfGsJ;E sai come mi piace... 
dToxyB;Certo che lo so, ho iniziato a succhiarti se ti ricordi. 
vLR7G7;Clever Lane, gli piace così 
o0eRtW;Vai avanti e lui sarà sul tuo viso presto 
wA3Kae;No, oggi non ci fermeremo all'aspirazione, alle mie troie 
IXUiSi;Ho sentito tesoro, oggi ci onora con il suo membro. 
PklqFX;Beh, le mie puttane, si girano con il cancro, ti fotterò in strette fessure bagnate. 
AtQmZQ;Sì, tesoro, metti più uova... 
iY2izi;Oh quanto è grande con te... 
OLiMur;Oh... oh.... 
In6wcr;E duro come una pietra 
KrZ4ZJ;Goditi il ​​tuo bambino, i tuoi clienti sono ancora più grassi con appendici pigre 
pY6fRH;Vieni, mettilo sul bagagliaio 
uCMlF5;E non dimenticarti di me 
eJK6P0;Ah... ti piace davvero un bambino? 
pL6Fxd;Sì, non ho mai avuto un membro del genere 
IqEUQ6;Fottimi signore 
8uiMB2;Pozhayluista, cazzo, non fermarti 
z3TLJr;Inoltre, voglio di più 
4AbnGm;Guarda come le piace 
2xF5QR;Sì, mi fa girare così mentre chiavate questa troia 
TThA3U;Sì piccola, è più forte 
gByc3n;Dai, riempilo 
Vcfz0n;Dai, pompa la sua figa piena 
oI708y;Oh sì, finirò ora... 
HNblkW;Oh si! SI! OTTIENE PIZDA RIPIENO! 
qIfL25;Sì, riempimi con il tuo signore delle sementi.... 
z4o29W;Sì, sento che è così calda... 
aXOiPM;SÌ! SI! SI! Oh DAAA! 
oeTVLV;Finisci e cadi esausto. 
lcjjou;Circa sette, pure. Forse starò a dormire qui... 
SkSYjn;Guarda oltre Rosie 
xZWxOV;Visita Tiena 
0WdcqR;BDSM Signora 
2r0qrT;Bene, Madame Rosie, mostra la tua oscura essenza 
Hod9PX;Sì, ti piace il tuo vestito, Rosie? 
apCLxn;Presto andremo a Sangar e abuseremo del suo buco allungato 
CWVeJy;Questa troia con tette grandi ama il fisting anale 
P4fcFS;Notizie divertenti... 
PnrqGS;Vale la pena di scoprirlo in modo più dettagliato... 
E1mNpl;Tacchi 
eyrbSJ;Guarda Lane, a quanto pare ci abbiamo provato duramente l'altra volta. 
Y89LH0;Sì, eri grandi puttane... 
tsb4Qe;E voglio ripetere 
egcruz;Esprimi il tuo enorme membro, signore, la mia lingua è pronta 
xVAYFY;E ti sei abituato, troia 
cwaGW6;Senti, non farlo finire troppo velocemente 
7vuWPh;Mmm, lasciami succhiare il suo cazzo di più 
9nJ1Ed;Leccami la testa piccola, dai 
xzkkzI;Sì, come questo 
pkp1AB;Leccati la sua cagna di cazzo, leccagli la testa 
d9vMbo;Non vedo l'ora di fotterti....
fW6J6T;Presto la pianterai sulle tonsille 
GAIxry;Voglio che la scopi come l'ultima cagna... 
EZA2LV;Quindi puoi sostituire il tuo culo più velocemente... 
OhNBm8;Rallenta, signore, non sono abituato ad accettare membri del genere 
nh9C9N;Oh... oh.... 
G3Q1bW;Oh... oh.... oh.... 
sj76yz;Prendi la troia 
SRQCI7;Ebi, sì, cazzo il suo bambino 
3L0uCU;e mi accarezzare con un dito e, sì...
jLkemr;Ti piace quando si scopa con un cazzo così enorme? 
46NYCU;SÌ, SCOPI! 
yL3w01;PIÙ FORTE, FAI IL TUO MEMBRO IN ME! 
NZW6a2;Oh, quanto è bello... O SÌ! 
26ClK9;ALTRO, VAI AL MIO MIO SIR! 
q11mUU;Guarda come le piace 
EnF77N;Oh, se non ti fermi, finirò... 
hRP550;Dai, versati in lei... 
0PbJ0U;Vieni, voglio vedere come il tuo sperma emerge da esso.... 
n4A4Ja;Allora prendi delle troie a buon mercato... O SÌ! 
LUNQpR;Milord, mi sento! 
xR8XS2;È MOLTO! 
3CO1bY;LE TROPPE MOLTE MILIONI! 
jsuCc9;NON LUOGO A MILORDA !! 
kqqqsh;Finisci e cadi esausto.
X8C3Xr;Phew, ora puoi riposare... 
hCt9nA;Inizio 
dg3Kje;Hmm .. mi ricorda qualcuno...
rFhkO4;Buon pomeriggio, maestro. 
EoqL8E;Milord 
fH9fWI;Ho appena vagato per la città e ho notato la tua fucina. 
I0Q69L;Il migliore di sette regni, mio ​​signore. 
TB3IoF;Penso che lo diranno in ogni fucina. 
rJBeBL;Non tutti possono vantarsi di poter processare l'acciaio Valian. 
5XXAKc;Oh. Poi sono contento che mi sono avvicinato a te. 
TxLfFU;Qual è il nome del tuo ragazzo? 
7JfGzj;Jendry, mio ​​signore. 
EEGHu8;Grazie, Jendry, penso che avrò bisogno dei tuoi servizi presto. 
zAIn5z;Assicurati di visitare il mio signore. 
VmqOX3;Eppure mi ricorda qualcuno...
EQl4hN;Jendry! 
KeyGUQ;Milord 
1nLQkL;Sto rimodellando i miei nuovi locali e vorrei ordinare le seguenti costruzioni metalliche. 
0H1Hv9;Ecco una lista con le immagini. 
JOBhyx;Devono essere molto forti e abbastanza lisci perché le ragazze devono lavorare su di loro. 
Xnn5Ol;Quindi... pali e gabbie... aha... cornici metalliche... aha 
Rr0ibg;Bene mio signore, penso di poterlo fare. 
AdHwM6;Solo per coprire alcuni elementi ho bisogno di argento di alta qualità. 
JZnl0q;Inoltre alcuni inserti richiedono un'esecuzione sottile. Per fare questo, è meglio rivolgersi al gioielliere, e per me integrarli non è un problema. 
djPluh;Ok, inizia e qui è il pagamento anticipato.
xXZfE8;Consegnerò personalmente l'argento e gli elementi decorativi verranno eseguiti. 
Tmk9xf;Mano, mio ​​signore. 
4h205U;Sto iniziando a lavorare 
lqb1Bt;Tutto il meglio
SOyFjI;È scomodo. Scusa, penso di aver dimenticato i soldi. 
EEbIxt;Torna più tardi, mio ​​signore 
XdcReN;Ciao ragazzo. 
2s2DK7;Tenendo le barre, il gioielliere ha giurato che questo è il miglior argento del continente. 
neAEID;Controllerò questo mentre dirigo il mio signore. 
lNlKDB;Domani puoi iniziare a inviare lavoratori, farò diversi elementi al giorno e saranno in grado di costruirli immediatamente nella stanza. 
ENnhnF;Penso che finirò questa settimana. 
ognqow;Ok, grazie. 
cRf5yh;Sì, e qual è il nome del tuo ragazzo?
C64xQE;Voglio contattarti per nome. 
GFokkU;Jendry, mio ​​signore. Mi chiamo Gendry. 
KSKQOE;Grazie a Jendry. Penso che ti piacerò più di una volta. 
zurElQ;Sei molto gentile, mio ​​signore. 
QwstMj;Buon pomeriggio mio signore. 
wE45Q0;Ciao Jendry. 
Nhg2vI;Perché sono qui...?
Bcq8so;Perché è qui?
BHkIgh;Forse dovrei andare. 
01aMtM;Menu Forge 
kVrhP7;Uscita mappa 
61e7gH;Start 
XFQD3d;Chiuso. Non c'è da stupirsi se è a tarda notte. 
SVCSMH;Dall'interno, suoni appena udibili. 
v8R3WF;Ascolti attentamente e sembra che tu riesca a distinguere i colpi della frusta e i gemiti di qualcuno. 
U0h1QI;Interessante
58tyLK;Buon pomeriggio, mio ​​signore. 
gb26t2;Lasciami presentarmi, signora Sangar. 
THo6o5;Il capo delle dogane del porto reale e il comandante delle navi dei sette regni. 
AntlRg;Saluti, mia signora. 
pQTwil;Molto felice di conoscerti. 
NAsDo3;Queste sono le tette...
YlhXZM;E non esitare nemmeno a mostrarle
lD7MxT;Penso di sì, se voglio un buon Arbor, allora ti contatterò? 
sVyTsi;Smile
zqL22z;Sì, si pensa correttamente. Ma non ho un negozio e posso aiutarti solo se ci sono scorte extra. 
xh9Hry;l'ho pensato. 
utqxJp;Ancora una volta, felice di conoscerti, signora. 
iG03V1;Tutto il meglio!
2y7BwR;Saluti, sire, come posso aiutarti? 
NNAR8h;Buon pomeriggio signora. 
XjvC2U;Vorrei effettuare un ordine per alcuni materiali. 
cLLloV;Fammi dare un'occhiata? 
7ieIhr;Emm .. i materiali sono piuttosto esotici. 
zrMf7B;La maggior parte è stata portata solo da Dorn, ma alcuni dovranno aspettare a causa del mare stretto. 
754SOA;Puoi lasciare un pagamento e te li riserverò per te non appena le navi verranno scaricate. 
tNJaJh;Grazie. Signora, sei molto gentile. 
Xt7nuH;E molto caldo...
QuafbE;Invierò lavoratori come materialisti. 
Xmr1z4;Mi vergogno di ammettere a me stesso, ma sembra che non abbia abbastanza soldi. Anch'io, signore di Dornish. 
DRqBBP;Può accettare il cunnilingus come pagamento?
jaNnJF;Buongiorno, signora Songar! 
IiYSTO;Sei tu, felice di vederti, mio ​​signore. 
PnF7Mp;e sono così felice
UCH9Kr;Sto pensando di aprire un locale e vorrei che i miei ospiti godessero del buon vino e dei migliori frutti. 
JHElrC;Quindi scriverò per te l'oro Arbor e il frutto più fresco dell'est. 
hsVRK2;Posso aiutarti con qualcos'altro? 
Jp7b1l;No, forse non ho più motivi per disturbarti di più, signora. 
tYCe3K;Oh, che tu sei il mio signore! Non mi infastidisce affatto! 
XUlaoS;Se hai bisogno di un motivo per venire da me, vieni a bere vino la sera, lo tratto. 
IgZWTK;Signora, sei molto gentile. Sicuramente userò il tuo invito.
Z8H9uK;Non ho più oro. L'idea di cunniling sta diventando sempre più probabile... 
1f1oVg;Puoi iniziare immediatamente a leccare le prostitute delle porte? 
X6S4dV;Sig.ra Sangar, devi aiutarmi di nuovo! 
jgXO3F;Il meglio che ho, mio ​​signore, è tutto a tua disposizione. 
nTMSfJ;Oh, mi eccita quando dice un tale frazochki...
6BdXNq;Sei troppo gentile, signora. 
3eSR6I;In effetti, ho bisogno di bevande e cibi da questa lista. 
73gUrK;Oh, certo mio signore. Manda le persone, tutto sarà pronto. 
v6OWcz;Se posso ancora fare qualcosa per te... 
ogNIj6;Ho paura di abusare della tua disposizione, signora, ma devo andare. 
caLaYj;Grazie.
FMfSmD;Smettila di camminare verso di lei senza oro e vergogna... 
0rRrze;Buon pomeriggio, mio ​​signore. 
aJHcF2;Sig.ra Sangar. 
QIPcaP;Posso guardare queste tette da secoli
UbaXi5;Sembra che venga solo a fissare il mio petto
51lfcN;Beh, non mi importa, guardalo
oRvs5i;Sembra che indovina...
fE00LS;È ora di partire
zijNhG;Scusa, ho dimenticato che volevo chiedere. 
UiMMYY;Tornerò appena mi ricordo, tutto il meglio! 
xT9u3G;Ancora, questo Dornier
CJGKY6;Saluti mio signore. 
YtXXDp;Volevi qualcosa? 
chEJah;Sig.ra Sangar. Um... 
XoCpcG;Solo un po 'di più guarda le tue tette
eKL0Nb;No, forse no.
T5sf24;Di nuovo, considerando il mio petto, non sono più imbarazzato
EaTJck;Allora farò le cose, se posso. 
PLCfAT;Dovresti comunque andare meno spesso
j8Zd3n;Oppure andare a scopare una delle ragazze in un bordello
MdRP3U;Sì, mi dispiace per l'intrusione. 
FnpbFu;Qualcosa con la mia memoria non appena ti vedo. 
T3ZUe1;Menu principale su navi 
f129jd;Esci dalla mappa 
EiCLMC;Penso che non dovrei presentarmi qui durante il giorno
S1dmVt;Spider e mignolo mi stanno guardando
cvW0Tz;Il sole è già salito
88fzQb;quando è ancora abbastanza scuro
0xjxLC;I Tyens non sono visibili. 
ui6Vor;Il principe Oberin ha detto che sarebbe stata qui.
RCim8n;Tornerò più tardi. 
0xCRnc;Quest: Ci sono diavoli nelle acque tranquille
7O0pcC;Vai alla mappa 
S5b8sb;Quest: Non è mai troppo tardi per imparare 
01Or5E;Vai alla mappa 
7hg5uB;Buona notte Lord Varys. Milord... 
P4Q0gQ;Saluti, miei signori. 
yQZhqt;Penso che tu sia interessato al mio verdetto. 
wDlq9h;Penso di conoscerlo già. Ma sii abbastanza gentile da doppiarlo...
EaHnOE;Una persona che non puoi giocare al trono. E in questo gioco hai bisogno di un avversario. Quindi, visto che siamo qui... 
oe96ON;Seleziona il lato del mignolo (ramo con Sansa) 
Irp4nk;Seleziona il lato del Ragno (ramo con Cersei) 
UbSXw4;Pss, prendi la ragazza e conduci direttamente nel bordello.
V8Agr8;Lane, non apparire per le strade per la prima volta, e se esci, allora nascondi la faccia. 
mEI2ph;A Septon non piace quando lo lasciano, questa non è la guardia reale, non ti dimettiti qui. 
3KLxca;E fornirò tutto come se fossi ucciso mentre cercavi di violentare. Alcune persone dovranno morire, ma questa è la mia preoccupazione... 
6ZuRfM;Non deludermi ragazza, ricorda, qualcuno pagherà per la sua nuova vita. 
zKm8OC;Grazie, Tiena, spero che ti vedremo di nuovo. 
RHfsJI;Oh, non preoccuparti piccola, presto ti visiterò. 
vjnk52;Ciao piccola, incontrata, questa è Lane 
ykOeC5;Quindi tu sei il mio futuro datore di lavoro? 
s4jsfi;Togliti i pantaloni, ora faremo dei test. 
h1ohMT;Oh...
Aq0F5Q;Forza piccola, fallo finire con una lingua. 
9QL4g2;Mostraci cosa puoi fare. 
BeO7DF;Brava ragazza, lavora come lingua, metterò il baule e tu accarezzerai la sua testa. 
EuXOzL;Oh sì, ragazze, finirò presto... 
yPjRKF;Fallo finire in una lingua, e poi tutti gli uomini nel tuo bordello. 
JHHBJK;Se non ti fermi, finirò. 
5LM8Fc;Dai, piccola, mostraci cosa puoi fare. 
2lTcpp;Intelligente, lingua di lavoro, metterò il baule e tu accarezzerai la sua testa. 
oCD5o1;Oh sì, ragazze, presto finirò... 
0dmOTi;Non essere timido, finisci il bambino. 
q4PLx8;Dai, copri il suo bel viso 
M54tLc;Oh sì !! Sì puttane, sì! 
Ca1C4O;Buona fortuna, bravo ragazzo.
xWewuk;Lo lecco fino all'ultima goccia. 
Fpr0cl;Come ti chiami, piccola? 
7P0Kj7;Non essere timido, Tien mi ha detto tutto di te. 
v50Pez;Lane, il mio nome è Lane. 
j9R59A;Quindi non sei così silenzioso, piccola. 
FOxJp2;Come sei arrivato qui? 
M7X5S2;Ero un orfano e andai da mia sorella disperata. 
7JCdvS;Poi, quando sono cresciuto, le ragazze mi hanno portato alle guardie, e ho avuto un ragazzo molto inesperto, che è stato trascinato dentro per la compagnia come me. 
06qe1S;Abbiamo avuto un sesso molto imbarazzante, ma è stato tutto molto bello. Allora i ragazzi a quanto pare gli hanno detto cosa fare e le sorelle mi hanno insegnato. 
1RX54f;Nel corso del tempo, ho iniziato a provare altre guardie e ho avuto un assaggio.
qPvcwq;In realtà, volevo offrirti di cambiare attività. 
tVvlfE;Vai in un altro posto, dove non puoi nasconderti nei magazzini polverosi, non ti trattenere, urlare e gemere come vuoi. 
UaV2Ba;Vesti come ti pare, non lavare e cambiare il buffone del morto durante il giorno, e la compagnia è molto più bella e più piacevole delle guardie. 
HlYUGz;Wow, suona bene. E 'un bordello? 
ZhcRY1;E tu sei pronto a indovinare. Sì, e questo non è solo un bordello, è un posto speciale, nemmeno Lord Beilish in tutto il porto. 
6pUZxm;sorridi. Allora sono d'accordo. 
sXqSFR;Tien, quindi lavora al piano di scomparsa della ragazza. 
GmtJZA;Buon Dio, vieni domani sera. Lane sarà pronto. 
TXPqC9;Tiena, ho ancora bisogno del tuo aiuto.
IxGiQG;Cos'è questa volta, piccola? 
i7U7Gd;Madame ha paura che all'inizio non ce la faranno. 
WVlT2z;Potresti aiutarmi e intrattenere i clienti mentre le ragazze sono impegnate con il servizio? 
k4VQCM;Vuoi farmi una puttana? Sai cosa farà mio padre quando lo scoprirà? 
6ekmWc;Bene, prima di tutto, il mio principe sa che tutto ciò che faccio ha uno scopo comune, e non ho bisogno di questo per il mio capriccio. 
vF5Yts;E in secondo luogo, morire per mano di tuo padre è la morte migliore che possa desiderare per me stesso. 
RPZk5H;Sì, ho dimenticato quanto sei sincera con mio padre. Bene, come posso rifiutarti? 
L70Zbr;Bene, lavorerò per voi, ma non lamentatevi del fatto che mi piace più popolarità di altri. 
7veOGJ;Sapevo che potevo contare su di te.
Q3RsQ6;Sei già il mio debitore due volte, piccola. Dobbiamo in qualche modo risolvere questo problema nel prossimo futuro. 
CtrcFN;Certo piccola, ma prima di tutto. Dopo la scoperta, sono a tua disposizione. 
cPr2pU;Menu Monastery 
7PfvtG;Il posto mostruoso questo monastero di sorelle silenziose... 
daFn4m;Forse incontrerò Tiena un'altra volta. 
IP2qck;Uscita sulla mappa 
NHwDNW;Nelle acque tranquille
uOwvkB;Ciao piccola! 
8bH8BS;Ciao Tiena. I miei piani per l'implementazione stanno lentamente implementando. Ho trovato una ragazza decente per un bordello, ma con questo nel porto reale stretto. 
Ddpytz;O puttane porta a buon mercato, o... 
GG9AIL;Sai piccola, penso di poterti aiutare con quello.
Hu7XIS;Una sera tardi, quando sono tornato, ho sentito un rumore dal magazzino. 
jBsfyJ;E cosa penseresti, uno di quelli silenziosi stava saltando sul membro di una guardia. I gemiti erano tali che non riuscivo nemmeno a trattenermi e mi infilavo i pantaloni con la mano. 
79nZph;Sulla pista. Il giorno in cui l'ho schiacciata contro il muro e ho minacciato di dire tutto a Septon, se non mi avesse detto cosa fosse successo. Si scopre che spesso le guardie peccano venire e correre, scopare con il silenzio. 
LBLfDx;Non hanno paura nemmeno della voce che tutte le sorelle sono fidanzate con l'ignoto. Beh, sai, è difficile resistere quando ci sono giovani suore disponibili che non diranno niente a nessuno. 
65G3VS;In generale, secondo lei, spesso qui si verificano intere orge. Quindi, le piaceva questo processo e spesso fornisce servizi intimi alle guardie.
JhHZdL;Se le parli segretamente dalle sorelle, forse puoi convincerla a lavorare con noi, e organizziamo tutto come se fosse andata via. 
iLHD6c;Sì, serpente, ti meriti tuo padre. Bene, verrò tra un paio di giorni la notte, la farò uscire per me, controllala. 
HcEC4W;Vuoi scopare una sorella silenziosa, spudorata? 
DDAMKL;Coira, allora anch'io partecipo! 
CzRgOG;Non avevo dubbi. 
cu1QRT;Non è mai troppo tardi per imparare 
XQ464J;Baby, ciao. 
rpwgsA;Ciao Tiena. 
MgRfrt;Ho ancora bisogno del tuo aiuto. Ragazze in un bordello, ma non hanno assolutamente esperienza. 
ecGabL;Potresti aiutarmi con questo? 
cFJR03;Vuoi che diventi un mentore per le tue troie?
lzPWB5;Beh, in uomini seducenti e soddisfacenti, non conosco nessuno più esperto di te. 
uPyUba;Smettila di lusingarmi, so già che sono la migliore delle sorelle. 
6uVT2a;Ok, la sera sarò con te, inizieremo ad allenare le ragazze. E sì, cambia il costume di Leine, l'abito di una suora può essere adatto per giochi di ruolo, e non è molto conveniente per incontrare ospiti o ballare. 
MtmxFD;Bene, visiterò Irene per quella questione. 
BAzUpK;E ricorda, solo un vestito, non permettere a te stesso di essere superfluo. 
FYE4h9;Mignolo 
HjSVQZ;Sapevo che avresti fatto la scelta giusta, mio ​​signore. 
4UE7Ae;Lord Varys, non giudicare rigorosamente, la tua influenza non è stata per molto tempo ciò che Re Roberts ha avuto. 
eAqjWb;Bene, questa è la tua decisione, mio ​​signore. Suppongo che dovrei trarre le conclusioni necessarie e riferire alla regina su di loro.
iNmgu1;Buona notte, miei signori. 
SK69eo;Non temere le parole di Varys, mio ​​signore. 
p1HGQp;Gli eunuchi sono persone pericolose, ma tu e io lo supereremo facilmente. 
K7d3GE;Forse ti aiuterò anche a diventare un nuovo maestro del sussurro... 
1KTiI6;Ma questo è tutto per ora i piani, ma nel frattempo vieni a trovarci, naturalmente, se acquisisci nuove connessioni. 
0mfXP6;Tutto il meglio, mio ​​signore. 
tXJu58;Quindi la scelta è fatta. Spero che il Ragno non mi avveleni la prima notte. 
rZy8CX;È tempo per me di prepararmi a spogliare Sansu. Non ho più niente da fare qui. 
2UPXkG;Spider 
YINz6W;Scusami, Lord Baelish, sembra che tu stia perdendo la tua influenza in questa città. 
tLPJhg;Ma non essere turbato, la capitale ha ancora bisogno di un buon padrone sulla moneta.
7bFZ1I;Ma se non ce la fai... 
kEqnoS;Lascia gongolare, Lord Varys. 
F3wtyt;Milord, pensavo che tu fossi molto più prudente. 
pWbruS;Ho detto che non ci si può fidare degli eunuchi. 
lrLXD7;Ma se tale è la tua decisione, lasciami andare.... 
hp7GdV;Il mio mignolo è un uomo pericoloso, mio ​​signore, ma tu hai fatto davvero di tutto quello che hai preso dalla mia parte. 
cz2B6U;Guida il suo gioco e tu saresti solo un altro personaggio nel suo tabellone. 
Xf1oDr;In ogni caso, ora sono al tuo servizio. Sai dove trovarmi, quando apparirà un pezzo di informazioni preziose, ti visiterò. 
Xp27b1;Buona notte, mio ​​signore. 
n1oUxk;Bene, Spider è Spider. Rimane ora da spingere le gambe della regina.
p8CwkS;È tempo di uscire da qui, non è nemmeno un'ora, la vendetta del mignolo non ti farà aspettare a lungo. 
wTHGPq;Quindi, io sono in questa baia deserta... 
qwqUnD;Spero di dover aspettare un po 'di tempo, altrimenti farò puzzare di fango. 
f4BHQu;La regina non allargherà le gambe se ha un cattivo odore da parte mia... 
b0WHlD;Qualche tempo dopo 
vNE2po;A quanto pare Varys ha già scoperto tutto ciò che i miei ragazzi hanno raccolto... 
voYIpV;E non c'è niente per lui. Dovrebbe essere più difficile eliminare i suoi uccellini! 
Fo3hx7;(Sono richieste almeno 10 voci.) 
MMx8fG;Milord, sono andato appena mi è stato detto che mi stavi aspettando. 
iDUYZP;Ci scusiamo per l'attesa. 
NwWoIz;Ho capito correttamente che hai accettato la mia offerta?
PrYrh8;Ho avuto una conversazione non molto piacevole con il mio mignolo, Lord Varys. 
9Do1l4;È amichevole con te quanto lo sei per lui. 
CmR5te;Non mi aspetto altro da lui. 
RhSY6e;Pertanto, ho bisogno di forti alleati in una città come te. 
NLk6Cz;In generale, entrambi mi avete dato degli ultimatum. 
c68hpI;Oh, non vorrei essere espresso in una forma così aggressiva, ma temo che sia così. 
qVcVMo;Bene, ma prima di scegliere un lato, ho bisogno di verificare quanta cooperazione sarà reciprocamente vantaggiosa. 
pyA50g;Questo è il tuo diritto, mio ​​signore. Sono pronto a fornirti preziose informazioni quanto a me. 
XWd7J1;Quindi ho bisogno di avere un pubblico con la regina. tete-a-tete, naturalmente, e preferibilmente in un ambiente informale.
evDZT9;Desiderio insolito, mio ​​signore, ed estremamente difficile. La reggente regina non conduce la ricezione in un momento non ufficiale, ed è difficile arrivare a quella ufficiale, devo dire. 
v2PXKD;Quindi non posso contare su di voi in questa faccenda, Lord Varys? 
skizMH;Milord, hai capito quante bocche devi comprare, in modo che tutto sia segreto... 
4r1avH;Incontriamoci quando hai l'opportunità di comprare guardie reali e non un paio di soldati all'ingresso della città. 
2yTvMq;(Sono necessari almeno 5000 draghi d'oro.) 
RnZc1d;Non affrettare le conclusioni. 
3tKZ3E;Alla fine, ho anche bisogno di attirarti dalla mia parte.
AZrxVE;Permettimi di accecarti, il modo in cui andremo, nessuno dovrebbe vedere, altrimenti perderò la testa più veloce del digiuno in un piccolo consiglio. 
kWd4UQ;Buono... 
n3jBON;Prendo molti rischi. Spero che non mi infili un pugnale nella schiena e non mi butti in una caverna deserta.
AiV4CN;Sarà un peccato morire senza finire la regina in faccia
KTMfzy;Immagino che tu abbia conosciuto la regina come reggente.
yBNzLW;Si può dire che la conoscenza della corrispondenza sia avvenuta. 
nM6Z3Q;Vero, la regina era un po 'impegnata con un giovane biondo che si chiamava cugino Lancel. 
UjErAX;Sì, dopo la partenza di Sir Jaime, la regina a volte visita suo cugino per... confortarla. 
DdgnLd;Bene, se ora sembra una consolazione.
IbHyw5;In ogni caso, grazie Lord Varys, sei un uomo di parola. 
CyO2tt;Sì, hai visto una parte delle mie capacità. 
Fa7tl8;Ora pensa, mio ​​signore, e spero che tu prenda la decisione giusta. 
Y6KzNL;Ti troverò quando sarai pronto per prendere una decisione. 
xM1ANM;Come è stato l'incontro, mio ​​signore? 
HsgXND;Oggi la regina era di nuovo impegnata... 
CXZclk;Non ho ancora avuto fortuna. 
TvgjPz;Non scoraggiarti, mio ​​signore. 
P1j3NU;La prossima volta che sei fortunato. 
a54bSv;Immagino sia andato tutto bene? 
Crfgfj;Sì, abbiamo chiacchierato piacevolmente con la reggente regina 
CCVmPe;sono felice di poterti accontentare. mio signore 
IvaydR;Grazie, Lord Varys. Lasciami uscire. 
gWkGT4;Quindi, sono in questa baia deserta...
JNjBvh;Spero di dover aspettare ancora un po ', altrimenti farò puzzare di fango. 
jnD6Vt;La regina non allargherà le gambe se sento male... 
KjKcW9;Qualche tempo dopo 
6bY2Yz;Apparentemente Varys ne sa più di me. 
EyQlYx;Può assumere un killer per tagliare i suoi figli? 
yFxMJt;No, temo che mi taglierà... 
PPMKg9;Sono richieste almeno 30 voci.
tZg0EE;Milord. 
aOuRj5;Lord Varys. 
t5Qf4J;Vuoi incontrare di nuovo la regina? 
1XOOrA;Sì, se non è di nuovo impegnata... con suo cugino. 
c0UzfQ;Se vuoi, possiamo far sparire il cugino... 
xLm5NF;Naturalmente, dal porto reale. 
Ys25Jr;Sei un uomo pericoloso, Lord Varys.
IAOH44;Ma lasciatemi stabilire un buon rapporto con la regina, e poi prenderemo il suo giocattolo da lei. 
Ph7TeU;Come desideri mio signore. Hai portato l'oro per le guardie? 
F2CzFN;Ho giudicato male i nuovi costi, perdona Lord Varys. 
JZ4Ill;Dobbiamo organizzare un altro paio di orge in un bordello. 
P54XF4;(Sono richiesti almeno 5000 draghi d'oro.) 
ApqttQ;Sì, certo. Un appuntamento con il piacere della regina è costoso, ma posso permettermelo. 
fQmEo9;Quindi siamo partiti. 
sces2E;Quanto è freddo qui... 
xozWdQ;E puzza follemente. È chiaro perché il ragno abbia scelto questo posto particolare, nessuno nella mente umana è in grado di essere qui di loro spontanea volontà. 
0vgf6p;Qualche tempo dopo...
uSzvaK;Sembra che Lord Varys sia troppo occupato e non verrà. 
Q7lzWj;Ciao ragazzi! 
pi3jkt;Ciao Irene. Vorremmo effettuare un ordine per questa ragazza carina. 
tYCWWo;Ti serve un vestito per questo cutie? 
Wz73f3;Esattamente. 
OGX64B;Quindi togliti questo straccio e vai da me. Prenderò le tue misure, piccola. 
th1zeE;Elvira si toglie i vestiti e il sarto inizia a prendere le sue misure. Ti accorgi che i capezzoli di Elvira hanno iniziato ad aggirarsi duramente
2M62Tb;Sembra che fosse molto eccitata dal processo
5sfdyN;Fatto! Puoi venire per un ordine in tre giorni. 
7IRLzz;Ottimo, grazie! 
kSaZ85;Ugh, sono un po 'preoccupato. Immagino che verrai quando tutto sarà pronto?
XXnTzH;Sì, prepara il caso per il trasferimento, chiudi la taverna e aspettami. Tra un paio di giorni verrò. 
RZybNq;Oh, ragazzi, suppongo che oggi vestiamo questa bella ragazza? 
SWoade;Togliti questa veste monastica, m mdm qui. non aver paura, non mordo 
ejczxh;Non ho paura, non sono mai stato in posti simili. 
lU5v2A;Niente, ti piacerà, il mio negozio è il posto più amato e desiderabile per tutte le ragazze della città dopo la gioielleria Gore. 
NUBFR5;Vero, e perché? 
LQ5woj;Difficile da spiegare, nel tempo capirai. Stare qui. 
kwc9Ba;Mentre il sarto fa una curva e misura Lane, noti che la ragazza ha cominciato a respirare più profondamente e le sue mutandine sono chiaramente bagnate
pfXNAJ;Sembra che un sarto non riguardi solo Elvira, ma tutte le ragazze
pwpyf0;Questa è l'ultima misura. Va bene, sei libero. Scegli un'opzione abito, e in 2 giorni sarà pronto. 
gDuQ64;Oh mio signore. Non ti ho sentito entrare. 
LAC0ug;Mi chiamo Irene, sono una persona che cuce i migliori abiti e corsetti nel porto reale. 
9VOZZb;Molto felice di conoscerti. 
SSBi7l;Questa è una ragazza calda
YaFqdU;Saluti Madame. 
kypU22;Sorriso
ZZAXeP;Oh fermati, chiamami solo Irene. 
XYUlOm;Bene, Irene. 
ZV97rw;Sono di recente nel porto, vagando per luoghi sconosciuti, stabilendomi in città. 
6kaUb3;Milord. Se tu oi tuoi amici avrete bisogno dei miei servizi - benvenuti.
VyfbD0;E ora, con il tuo permesso, tornerò al lavoro. 
vQilxr;L'inizio è buono, non mi dispiace conoscerci meglio
hal3iH;Milord. Ti sei perso di nuovo? 
VsFy8l;Sì, non mi abituerò mai alle tue corsie. 
D5eG4g;E il tuo aspetto spettacolare, hehe
XNiZJ2;Sembra che non si sia perso...
tPwVaf;Beh, se non posso aiutarti... 
fCNSiZ;Ho un paio di pensieri, ma ho paura .. .
9Zwv7r;Sfortunatamente non ancora, Irene. 
cFDKsI;Haha, mio ​​signore, penso che tu mi stia seguendo. 
bkC4hV;Oh no, mi dispiace, ma sembra che abbia perso di nuovo la mia strada. 
jHvrBw;E mi sembra che tu abbia già ben ricordato la strada per me, mio ​​signore. 
lepzHd;Scusa, non ti disturberò più.
a0HEPk;Menu Tailor
qj7yHZ;Esci dalla scheda 
t3ylRe;Lady Sans... 
sQjtxn;O OLD DIO! 
MRyZf3;Come mi hai spaventato... Chi sei? 
ubbPJ5;La regina ti ha mandato a spiarmi? 
x2plVC;O re Joffrey? 
fk2wxE;No, no. 
FvTB8M;Sono qui perché sono un estraneo proprio come te, mia signora. 
6IFaBp;E conoscevo bene tua madre, Lady Stark. 
eUMKlS;Se conoscessi mia madre, allora dovrei conoscerti. Mi direbbe sicuramente 
jzBUzU;Oo, è improbabile, hehe. Non parlano di questi bambini 
GnLxIQ;temo che sia stata così lunga, mia signora, da poter dimenticare. 
VqueFh;Sono uno dei signori di Dorn, e la regina di Dornies non ama neanche i nordisti.
eosWGn;Quindi, anche se veniamo da regni diversi, abbiamo molto in comune, mia signora. 
HmgnPF;Ma perché sei venuto? 
j8iaRE;Volevo vederti, mia signora. Trova un'anima gemella con cui parlare e trascorri del tempo. 
QTfyoS;Sai quanto siamo soli in questa città. 
Hu8pOd;Sì, ti capisco... 
iF7u5Z;qualche tempo dopo 
3X0hog;Devo andare, Sans. Sono stato incredibilmente felice di parlare con te. 
Iq932O;Sono felice di incontrarti anche tu, mio ​​signore. Forse in qualche modo mi guardi? 
0B5Nhv;Porta torte al limone. 
l1L2hU;Perdonami Sans, non posso presentarmi nel castello rosso. 
XOqA7f;Verrò da te di nuovo qui non appena posso.
EmckmU;Bene, tornerò spesso e ti aspetterò. 
9LAC4s;Grazie a mia signora. 
gB5hIV;Sansa, non vedevo l'ora di un nuovo incontro. 
rcCJfa;Milord, mi mancavi anche tu
1ep3N8;Confesso di essermi sentita così sola ultimamente... 
jfCXpC;Oh, suona bene 
W33CrQ;Sono felice di poter rallegrare la tua solitudine, mia signora 
BuKVAx;Andiamo a metà cimici? 
k3YIe2;In realtà, stavo pensando di fare qualcos'altro... 
hXYYEV;Come desideri, mia signora... 
tFnXti;All'improvviso, vedi che qualcuno si sta avvicinando alla Godhouse 
PNehRD;Sans, sembra che qualcuno ci venga . 
OF2XO2;È pericoloso per noi mostrare la nostra connessione, ho bisogno di nascondermi urgentemente. 
3muujf;Ma dove?
MChUID;Non hai tempo per scappare... 
avmx8O;C'è un modo. 
ZzPQPX;Non pensare per arroganza, ma posso facilmente nascondermi sotto il vestito se lo sollevi. 
XWCChh;Sotto il vestito? 
oAvo32;Non so se qualcuno scopre che un uomo si è arrampicato sotto il mio vestito, non sposerò mai un re 
lVHprK;E se qualcuno scopre che mi incontri segretamente, sarai sospettato di tradimento al re e inizierai seguirti ancora più da vicino. 
dckPI4;Beh, solo no volgarità, mio ​​signore. 
hsfZBR;Sansa, tu pensi troppo a me 
q2BI4P;Come posso perdere questa possibilità e fare a meno della volgarità... heh heh heh 
a6bvSJ;Sansa prende il vestito e tu ti nascondi velocemente sotto.
0Cykh7;Mm, e ha delle belle mutandine. 
Iyg3GZ;Lady Sans. Perdonami per averti disturbato nel momento della tua solitudine. 
Nc8G7c;Lord Varys. 
N0mZgq;Ti mostro una certa compassione e vorrei avvisarti. 
qcGZMf;Avvisa? Cosa, Lord Varys? 
TcjDt2;Penso di sapere cosa sta per succedere a Spider. 
PEMgj2;Dobbiamo rompere la promessa e deviare Sansu 
M0ec1W;Iniziamo con queste teneri gambe vergini... 
9YXWK3;Mmm, che fianchi, ancora nessuna mano di un uomo li ha toccati. 
Lu8kUz;Ah! 
7MRYEa;Milady? Stai bene? 
tSRaij;S-sì... tutto è in ordine, per favore... mi dispiace. 
1Qph5M;Che cosa sta facendo? Oh, che bello... 
WWw2JL;Ma questo è sbagliato, non dovrebbe...
IPhOKk;Ma come posso fermarlo? 
QPXyA0;Quindi, volevo dire... 
rCH5Q5;Y-sì... ti ascolto 
r62QOJ;No, non ascolti, hehe he he-he 
DKFGPF;Accarezziamo più vicino alle mutandine. 
P6xh76;O vecchi dei, lui mi tocca lì... 
1LxXXA;Recentemente, una persona è apparsa in città, il giovane signore di Dorn. 
xyq1S7;E le sue intenzioni sono piuttosto nebbiose... 
QyDgTk;E ora accarezziamo la fica attraverso le sue mutandine di seta 
Dze13w;O DEI, EGLI TRATTA LA MIA INTERCALITA '! 
FP2x7A;Questo è inaccettabile, ma così bello... 
5JFhV4;Oh vecchi dei, perché non lo sapevo prima... 
Uu6QiK;Ho informazioni che è strettamente associato a Lord Belylish.
1TXvBv;E Belysh può organizzare il suo incontro con te. 
NsupCz;può massaggiare il suo ano vergine? 
8iEEGX;No, non sta già tremando così tanto, a quanto pare non sa che puoi fottere anche lì
8axdmq;Mmm, che bello... 
jlNCtY;Ma mi vergogno tanto di come lo guarderò negli occhi .. . 
HsQLay;E volevo dirti di trattarlo con cautela 
y2xQgc;Non è noto quali siano i suoi obiettivi nella capitale. 
ang7Pc;Abbiamo bisogno di spostare le sue mutandine da parte 
HK1FXk;Sono già abbastanza bagnate, ovviamente le piace. 
ib36VL;Oh no, ho aperto il mio cavallo... 
uvuYIT;Spero che non mi tocchi... 
sXUHL5;Anche se è così bello, devo ammettere che voglio toccarmi
oZqRFZ;Come ho già detto, non sono indifferente a quello che ti succederà 
L8xXIx;Quindi, anche se non ti fidi di me, ascolta il mio consiglio, non fidarti di lui 
KfqpYS;e ora liscivia la tua figa vergine 
qJX1fF;IT LIES ! LUI MI RIMANE! 
tiyZj9;AAA, NON HO FATTO MAI QUASI
1YADo3;MMM, COME BENE 
r7EGBa;CHE COSA È? COSA STA ACCADENDO PER ME? 
tccuqA;AAAAAH! 
Hfa4ED;Milady, mi stai spaventando... 
dCwE3A;Stai bene? 
nxYiDX;Posso portarti dalla maestra? 
TogAjy;Oh si... 
NHPHbL;Non è così, mi dispiace Lord Varys...
R6xFiU;No, va tutto bene, scusa...
nF9GhN;Bene, se sei sicuro che tutto va bene 
8GHOb2;Sì... sì... 
G9thWh;Tutto va bene... 
0wzgZm;Non mi sono mai sentito meglio... 
AL8rv9;Hehe hehe, con il primo orgasmo, mia signora 
soWU0y;Allora lasciami andare. 
FAETNs;Promettimi che considererai attentamente le mie parole. 
Tv29j8;Sì, grazie Lord Varys. 
4XZ1lO;Sei molto gentile... 
6ZWe0q;Lascia il tuo rifugio e vai fuori 
0G1bFy;Milord! Come hai potuto? 
KH7D2u;Hai promesso che avresti fatto a meno della volgarità! 
zJtrth;Scusami, mia signora... 
yxQSL6;Hai delle belle gambe, un bell'abito, hai un odore così bello, non ho potuto resistere.
uoVfhd;Mi hai appena sedotto... 
GJYg7J;Ma tu.... 
QWns1v;Questo è sbagliato! Nessuno dovrebbe toccarmi prima del matrimonio! 
x4VHLd;Come sta Joffrey a sposarmi ora?
eccqmg;Milady, rilassati. 
tAAQPK;Sei ancora innocente, e se non lo dici a nessuno, allora nessuno lo saprà. 
jcytVf;Sì... probabilmente hai ragione... 
jkF0Ug;E poi, il re ti apprezzerà ancora di più se sei innocente, e allo stesso tempo ne hai esperienza
OzJYx0;Vuoi dargli lo stesso piacere che io consegnato a voi? 
EuhhcA;Forse si... 
fH4leJ;Allora non esitare, mia signora. 
PAUsiY;Non ti farò del male, e posso insegnarti molto.
d9MLBP;Ho bisogno di realizzare tutto ciò che mi è successo oggi. 
VARtv7;Penserò alle tue parole, mio ​​signore. 
eBPpaU;Scusa, devo essere solo. 
SMgLSg;Certo, Sansa. 
zOjhYp;Me ne vado. 
VkPcVl;Milord... 
cZLnTO;Ciao Sans. 
Q3PREg;Hai pensato alle mie parole? 
mnkBHJ;Sì.
xoO8EX;E voglio dire, hai ragione, devo diventare una regina e devo essere decente. 
21fhlP;Brava ragazza. 
XzxxFQ;Quindi ripetiamo i nostri giochi sotto il vestito? 
24Xd3n;Quindi subito? 
EbTU87;Non sono sicuro... 
0ti7BL;Arriva qualcuno! 
Q66Iwc;Prendi subito il vestito! 
R8j3ON;Dove !? 
lsk1Hl;Non vedo nessuno...
tL0sSb;Sì, te lo sto dicendo per certo! 
F5FrtN;Piuttosto, ci vedranno insieme! 
e0jBgz;Ok... 
nFiGDW;sembra che mi stia ingannando... 
s3uWrY;Ma non mi sembra dispiaciuto
V8RbRS;Sto iniziando un bambino! 
zSjmQ4;Ti chiedo solo di stare attento, mio ​​signore... 
UWuR9p;Non aver paura, ti piacerà più dell'ultima volta 
N51mPi;Scuotiamoci il culo elastico 
lrlvnQ;Ah... 
6s9MVC;Qual è il mio riser ! 
qI5eGZ;Se non vado al bordello per depositare Tien, devo masturbarmi da qualche parte...
qE7Iju;E ora massaggerò il tuo ano 
BNGkpS;È... così bello... 
pLzOPo;È ora di leccare di nuovo voi
Ya3J1v;L'ultima volta che ho iniziato a tremare quando mi leccavi lì...
EpumLa;Ero molto spaventato, anche se ero molto contento 
xoKKXn;Questo si chiama orgasmo, mia signora 
MSugCX;Questo succede con uomini e donne quando si toccano abilmente in luoghi intimi. 
JKuB3G;Non preoccuparti, non ti rovinerà 
usibNg;Se dici che tutto andrà bene... 
cD7Tgy;Ah... 
28MdbY;I... ah... Mi fido di te, mio ​​signore 
yop5Gc;Sì , portami un orgasmo... 
uGegoW;Sì, leccami, mio ​​signore 
dinw0D;Chiamami su di te, piccola 
fcGI3a;E dimmi: lecca la mia vergine figa
KxyS49;Sembra così sporca... 
ZxSYP0;B volume e significato .. Dai, non essere timido, accende gli uomini
MeYikF;Lick my... virgin twat... 
5oxjZy;AAAH! 
YFbLRM;SÌ! È ANCORA! 
SN2w4m;ORGASMO! SI! Ho ancora ORGASMO! 
wED3Rb;Questo si chiama finito 
51fbbb;Sì, ho finito, mio ​​signore... 
WWLcqq;Lascia che ti riposi. 
J8aZ5x;E mi sembra che abbiamo urgentemente bisogno di un bordello... 
ralZBu;Aspettatevi nuovi contenuti nella prossima versione. Ringraziamo tutti coloro che ci hanno supportato per la creazione di questa versione 
gnEJav;Il vostro aiuto su Patreon velocizzerà la pubblicazione di nuovi contenuti e sarete in grado di partecipare alla sua creazione :) 
hyTRgm;Grazie! 
W6RS4G;Sembra che lei non sia chiaramente sola lì. 
bg5Q84;Ma se Jaime non è in città, allora con chi è?
RsM0Ad;Guarda in silenzio attraverso la porta aperta. 
pATA1R;Oh sì, cugino, quanto mi è mancato. 
9OuET8;Ma questo è sbagliato, Cersei! Non dovremmo farlo... 
FEO0WP;Zitto e scopami. Dai, stendi il tuo cazzo. 
KROYMs;È comunque un peccato. Gli dei ci puniranno. 
CxiUi9;Vedo come temi gli dei, cugino. Quando mi prepari un vestito non fermerai neanche l'ignoto. 
qkD6RK;Oh sì, come mi sono perso, dai, scopami. 
P6MbB5;Se qualcuno lo scoprisse, affronteremo un processo. 
o5HYDp;Nessuno saprà se non chattare. 
NZMTE1;In generale, mi distrai parlando... Circa sette come mi piace scopare. 
KhlyiK;Non aspetterei Jaime...
CZIpq7;O Cersei, sei così caldo in te. Penso che sto arrivando. 
45YXSj;Dai, vieni da mio cugino. 
qJsYPm;Oh si, si! SI! 
Qxp53q;Oh che bello. 
GEsgUU;Vieni, entra in me! Pompami! 
rv17F8;Fratello intelligente. 
AAJNE9;Sembra che tu abbia visto abbastanza. 
hu6zWT;Per oggi la regina è esattamente occupata. 
Li4P1f;Bene, devo andare. 
CYnygW;Oggi la regina reggente non è esattamente interessata alla mia società. 
VeZiRR;Ma se non fosse suo cugino... 
z5IdVH;Sono stato fortunato, oggi la regina è sola. 
LBp0Uo;Bene, amico, è tempo per te di mostrare tutte le tue abilità e domare questa troia matura. 
T8arrE;Vostra Maestà...
iIjiB8;Cosa? Chi sei? E dov'è la guardia reale? 
l8Gwy9;Scusami, ma temo che non si siano accorti di me... 
q8WLrk;Posso ordinare di eseguire te, e allo stesso tempo il comandante della guardia per tale impudenza? 
1DFHO2;Anche se sei abbastanza ricco per comprare i guardiani reali... 
Kr096I;Questa troia ha già preso i soldi... fantastico, giocherò con questo
tusOMu;Sì, sono il signore di alcune terre del sud, e non un povero uomo. 
us40hi;Ma la mia ricchezza non è nulla in confronto alla tua famiglia. 
wGpvwr;Tuttavia puoi spendere così tanto per ottenere un pubblico con la regina. 
1k5ZUS;Quindi cosa vuoi? 
1TteHV;Volevo solo esprimere a voi le mie personali condoglianze per la vostra perdita e la morte di re Robert.
ajXxMG;Anche se, per quanto mi riguarda, era un re poco importante ultimamente... 
aPCj8l;E tu sei sfacciato e insolente a dirlo, specialmente alla presenza della vedova del re. 
q1C8WA;Lancio, maestà. Ho visto come ti ha trattato, la migliore donna dei sette regni. 
5YsZeC;E canta anche dolcemente, oltre alla sua ricchezza... 
ik4pyf;Permettimi di bere del vino con te, tua maestà. 
U7t0dJ;Nessuno sa della mia visita a te, quindi se vuoi rallegro la tua serata. 
azCnwo;Beh, se nessuno lo sa davvero, allora rimani. 
QHFekE;Divertitemi, dimmi cos'altro hai visto in Robert. 
IqDLix;L'ho fatto, sapevo cosa mettere sotto pressione... 
x0NkzE;Qualche tempo dopo
SQmMxU;Beh, mio ​​signore, sono un po 'stanco... 
46BDjK;Hai ragione, Robert non mi ha mai amato, ma l'ho fatto. 
LossP7;In effetti, è bello parlare con qualcuno su argomenti espliciti. 
ueJ2er;Non lo dirai a nessuno se non vuoi perdere la testa. 
T1zM2h;Non sono pazzo e posso mantenere i segreti. 
uYB8BB;Sono stato felice di rallegrare il tuo tempo libero, tua maestà. 
HGkrlC;Ti dispiace se ti visita di nuovo? 
vycedH;Se hai abbastanza oro... 
b8aL97;Quindi hai accettato. 
l8lnHQ;Lasciami andare, mia regina. 
kdgfei;Oh sì, cugino, dai, inseriscimi correttamente 
TpkwYT;Conosci tuo cugino, non dovremmo... 
OvxVP6;Ebi me e non parlare...
Sl5Tj0;Non riesco ancora a dimenticare che questo è un peccato 
xExbvM;Come sei stanco di lamentarti 
8BWal7;Devi mettere un bavaglio quando vieni a fottermi 
vis3Rd;La cosa principale che nessuno saprà a riguardo... 
bR4hSG;Anche se Qualcuno lo saprà, starà zitto per non perdere la testa 
2zTYZw;Non essere distratto, fanculo bene... 
edpNkO;Andiamo, cugino, andiamo... 
QgSPTO;Finirò presto, sorella... 
E47lf5;Vieni, cum in me cugino. 
ADF3FJ;Oh, finisco, Cersei, finisco in te! 
AntNVZ;​​Oh che bello. 
e2SEvY;Dai, vieni dentro di me! Pompami! 
7oLiM2;Bravo ragazzo 
mp0sgB;Per oggi la regina è impegnata. 
YVXXxH;Bene, devo andare.
rabMjI;Oggi la regina reggente non è esattamente interessata alla mia società. 
ZpRVeJ;Quest: Career Guidance 
DVjpZN;Gioca a Kaiwassa for Money 
nWccdD;Vai alla scheda 
3h3zkH;Estendi influenza 
MXIEn7;Mdaa, e qui il lavoro non è un vantaggio. 
z2BcEg;Bene, è tempo di creare un altro luogo d'élite nella città che non sia controllato dai servitori della reggente regina. 
pQ5q2k;Oh mio signore, scusa, abbiamo visto la porta aperta e abbiamo deciso che la taverna aveva ripreso a funzionare. 
f4uonf;Allora andremo. 
7neS20;No, no, aspetta, voi ragazzi siete appena in tempo. 
9bxt2v;Per te, c'è di nuovo lavoro. Ho bisogno di cambiare l'autorità di questa istituzione, e dopo l'apertura volevo che tu lavorassi qui.
1VqANN;Avrò bisogno di una guardia che estirpi le personalità sospettose e alcuni degli uccelli di Lord Varys. E, cosa più importante, avrò bisogno di persone con conoscenza delle lingue dell'est, per raccogliere tutte le ultime voci che portano i capitani delle navi. Con il pretesto della sete di notizie dalla madrepatria, dovrai imparare tutte le ultime informazioni. 
zYyEcf;Inoltre, sono necessarie tutte le voci sulle notizie del Castello Rosso, e ancora meglio dai bambini di Varys. 
JlWhdl;In questo caso, riceverai da me non solo bevande, ma anche salari. Sei d'accordo? 
396A02;Che bazar, mio ​​signore! Dimmi cosa devo fare? 
9vVfKO;In primo luogo, ho bisogno di portare ottime bevande e buon cibo.
HiRDBq;Devi anche avvisare tutti i capitani e mercanti del nuovo stabilimento, dove puoi bere una buona birra o vino, e mangiare cibi gustosi. 
km1lx7;Questo non è più un ristorante per marinai e altre cianfrusaglie. 
aeMM8F;Per il momento, ordinerò tutto ciò di cui ho bisogno da Sangar. 
iO0Gij;Vai al lavoro! 
Yh4OA5;Opening 
iTTPAK;Milord, abbiamo fatto tutto come ordinato. Molti sono interessati e recuperano la scoperta di oggi. 
7q2mRB;Eccellente, le istruzioni saranno le seguenti. Non saremo in grado di privare completamente il ragno delle informazioni, ma cercheremo comunque di rovinargli la vita. 
R65fob;So che porta la maggior parte delle informazioni ai bambini per i dolci, altrimenti andrebbe in rovina a pagare in oro per tutte le informazioni.
FOK7dp;Pertanto, non lasciare i bambini di strada nella taverna, assicurarsi che non siano sotto le finestre, i tavoli e tra i negozi. 
r5tgKe;Ridurre il numero delle orecchie di Varys è la chiave del nostro successo. Coloro che parlano le lingue Valirian, Giscar, Dothraki, Lkhazarian, Quart e Aschaya sono impegnati solo nella raccolta di notizie e voci. 
FQRmuh;A volte ti aiuterò a inseguire i bambini, ma per ora apri la taverna, cominciamo. 
WtBrUG;Vigorosa espansione finale 
sI4Vw9;Ho-ho, ed ecco che Lod Varys non tarderà ad arrivare. 
vrO4GD;Buona sera, mio ​​signore. Capisco che puoi congratularti per l'apertura di questa meravigliosa istituzione. 
AVypVi;Oh no, Lord Varys. Questo posto appartiene a una ragazza meravigliosa di nome Elvira.
bO1Gg0;Quella meravigliosa ragazza che lavora nel tuo nuovo bordello? 
alDthb;Non puoi nascondere niente a te, Lord Varys. 
eYUazV;Questo è il mio lavoro, il mio dovere verso il re, e se lo faccio male, mi sostituiranno con qualcuno che lo fa meglio. 
N8sdBZ;A proposito, è per questo che sono venuto da te. Non so se questa è una coincidenza o solo un incidente assurdo, ma il tuo posto è un punto oscuro nelle fonti delle mie informazioni. 
fsh945;Molte persone vengono qui con informazioni preziose, bevono, si rilassano, comunicano con i connazionali e molte di queste informazioni vengono trasmesse da me. 
NXX4ka;Capisci che non mi accarezzeranno in testa se qualche informazione preziosa non raggiunge il piccolo consiglio o il re.
wg9HQw;Lord Varys, proponi di mettere le tue spie nella taverna di una ragazza carina? 
itF5up;Comprendi che questo avrà un impatto negativo sulla reputazione della sua istituzione. Forse la taverna ed è popolare, questo è uno dei pochi posti in città dove le persone possono dire quello che vogliono. 
RVvbZe;Una tale isola di libertà, nel mezzo del porto reale. Forse vanno qui perché sanno che le loro parole non rientreranno nell'agenda del piccolo consiglio. 
ZZ0l19;Sì, ma poi abbiamo un dilemma. Sai che non posso lasciare questa domanda senza attenzione. 
1bZA8d;E cosa proponi in relazione a questo? 
49DP3G;Se non posso ricevere informazioni direttamente dai miei agenti, vorrei riceverlo da voi, mio ​​signore.
o2rpMp;Naturalmente, sono anche pronto a fornire alcune informazioni o servizi. Ho fatto indagini non appena sei arrivato nella capitale. 
ziqSfj;Capisco che il principe di Dorni vuole essere più vicino al corpo reale? Credo di poterti aiutare se mi aiuti anche tu. Certo, se non danneggia gli interessi della corona. 
mydCdc;Ho il tempo di pensare, Lord Varys? 
8eq3RU;Non ho paura. Inoltre, ho sentito un'offerta simile venuta da Lord Belylish. 
2wRA8r;Voglio essere sincero con te, mio ​​signore. Penso che nel mignolo i propri interessi prevalgano sugli interessi della corona. 
0Pkmv5;E quindi non vorrei che tu rispondessi alla sua richiesta. Altrimenti, il nostro rapporto sarà irrimediabilmente rovinato.
BqioFf;Ti ho sentito, Lord Varys. Bene, dove posso trovarti? 
QESkgX;Penso che tu non voglia apparire nel castello rosso. Vieni sulla riva della baia in qualsiasi momento conveniente per te, mi riferiranno che mi stai cercando e ti troverò io stesso. 
oX5XEM;Così sono entrato nel gioco... 
OZPhcE;Presto tardi dovrò scegliere un lato, ma puoi ancora giocare il lato neutrale... 
RfVDSO;Orientamento professionale 
S7lekr;Condizioni di controllo del denaro 
OpmaqR;Oh, mio ​​signore , sei frequente con noi! Vorresti unirti? 
Y8CTku;Sì, perché no. Dalla mia baldoria, volevo ringraziarti per il buon lavoro nel bordello. 
iEpuG0;È stato un piacere lavorare con te, mio ​​signore! Bevi alla salute del mio signore e alla prosperità dei suoi bordelli!
dKkxBW;Qualche tempo dopo. 
QnqDHN;Ragazzi, e le ragazze? Solo immediatamente ti avverto di non offrire i bordelli del tuo mignolo. 
8KsYqP;Non voglio arricchire i concorrenti, sai .. 
7ti9Mo;Sei Lord Dorn,ik, mio ​​signore! Ondeggia un drago d'oro e una fila di persone che desiderano fare sesso con te si allineeranno alla taverna! 
ngTi9Q;No, non voglio puttane a buon mercato attraverso le quali sono passate metà delle flotte di tutti e sette i regni. 
HoXHz1;Ci sono quelli che amano ancora rompere? 
hV1Neo;Uh, non so nemmeno... Midgar, cosa dici? 
RhNF4d;No, non ricordo nessuno. Ehi Raiko, smetti di bere, il mio Signore ha davvero fatto una domanda.
T2lnPx;Cosa? Ragazza inaccessibile mio signore? Hehe, vuoi preludi? Sì, perché andare lontano, ha vinto il locandiere Elvira, a te a lei. 
7A99H4;Ho sentito che lei scopa solo con gli eletti, e nessuno sa con quali criteri sceglie. 
YLKrSS;Hmm, grazie. 
RJwsf7;Cosa vuoi il mio signore? 
G9TSEH;Non ti offenderesti se ti dico che ti desidero? 
K6kkJP;E tu sei un uomo coraggioso, mio ​​signore. 
OIBqqZ;Vieni domani, quando non porterai te e marinaio a buon mercato da te e io penserò 
09itaD;Bene, hai pensato? 
kQJPo1;Sì, ti ho chiesto di te... 
NXcjNL;I ragazzi dicono che li hai ingaggiati per lavorare in qualche tipo di istituzione. 
IC4tJr;Quindi sei davvero un signore. E quale istituzione apri?
fZMDA6;Bordello d'élite. E vorrei invitarvi a lavorare lì. 
nc5JcO;Ehi! Non sono una puttana porta a buon mercato! 
tFY3Nx;Bene, il bordello non è economico. Pensa, prendi più o meno degno qui nella taverna, o loro stessi verranno da te. 
Ihwqkn;Vuoi testarmi per idoneità? 
VFIvQ3;Naturalmente. Nel bordello d'élite lavorano solo le migliori ragazze della città. 
3tFiHU;Bene, vai per gli scaffali, ti mostrerò cosa posso fare. 
3iVPw6;Elvira si toglie i vestiti e la stai premendo sugli scaffali. 
6Xzwks;Ah..ah... 
hZhLsm;Si vede che alla ragazza piace molto, ma cerca di non urlare per non attirare l'attenzione. 
RBqYSb;Oh si, mio ​​signore... 
fm2VZV;Sì, sì, più profondo, più profondo
HOn9J6;Più forte, accelera, dai, accelera 
VMmkcJ;Sì, come questo 
3Xyuoy;Così, come questo, AH !!! 
jy1vHM;Finirò ora.... 
m4Dh1O;Oh sì piccola, tu sei la migliore.... 
zr2yTR;Bene, come sono io per te? 
0ICppd;Molto niente. Quindi accetti di venire da me? 
stBtMG;Sembra allettante... Ma ho preso questa taverna da mio padre, non posso lasciarlo. 
IzkVs6;Questo non è un problema. Lasciamo il nostro manager qui. Può gestire le cose molto meglio di una ragazza fragile. 
KDLczK;Il manager? Com'è? 
CF06Hj;Parliamo come uomini d'affari. Ho un certo numero di um "speciali" istituzioni in Dorn, ma non ho bisogno di essere presente in ognuna di esse per farle funzionare correttamente.
AKQGHA;È sufficiente organizzare il lavoro dell'istituzione, mettere un manager efficace e controllare periodicamente che tutto sia in ordine. 
Q5Cq9p;In qualche modo non ci ho pensato, ho provato ad affrontare tutto da solo. 
mJz3Uh;E poi, non ho una persona a cui passare la taverna. 
bwV7gt;Non preoccuparti se accetti di venire da me, col tempo prenderò il controllo del tuo stabilimento e trasformeremo questo posto in una delle migliori taverne dei sette regni. 
KRaVWx;Non sarete visitati da marinai, ma da commercianti di Lys e capitani di navi mercantili. 
1ssG4j;Wow, suona molto bene... Ma questo è tutto inaspettato per me. Devo pensare. 
bjM1D6;Bene, verrò domani. Prenditi il ​​tuo tempo, prendi la decisione giusta.
iQhTUx;Oh, sei tu! Sai, pensai, e probabilmente hai ragione. La taverna non è ancora mia, e ultimamente le cose stanno peggiorando. 
ykFxh4;Non ho tempo per far fronte a tutto, e quindi la mano di un uomo è piuttosto necessaria. 
pWnS62;Quindi sei d'accordo? 
UfB5pO;Sì. Quando inizieremo? 
6fvETR;Per cominciare ti cuciremo un vestito nuovo. Non incontrerai i miei ospiti nella taverna. 
Xp50T6;Wow, adoro i vestiti! Dovrò pagare per questo? 
rJQsV2;Non preoccuparti, pagherai velocemente. Vieni con me 
mey16R;Bene, è ora di andarsene. Anche se sono molto sollevato, c'è ancora un po 'di rimpianto. 
4GrSrz;Comunque, l'eredità di mio padre... 
Ca6lSA;Non essere così sentimentale, Elvi.
fWD9lL;Per prima cosa, devi solo cambiare lavoro e la taverna continua ad appartenerti. 
CnSTc4;E in secondo luogo, nessuno ti vieta di venire qui ogni giorno e vedere come stanno andando le cose. 
L3wLo4;Sì, probabilmente hai ragione. 
jVS00b;Ok, stiamo venendo da te? 
xy0lgy;Sì, ti presenterò Madame Rosie. 
lgYvKC;Inoltre, stai aspettando un nuovo vestito da Irene. 
bl7tIt;Sì, Platus! Corri presto! 
6XSjeb;Oh, queste ragazze... 
mGj585;Menu Tavern 
OPtL6Y;Port tavern... 
cjMmOF;Ecco un posto dove ubriacarsi, combattere, derubare, essere derubati, comprare una puttana o assumere persone. 
Xdb0tK;Ma non ho ancora bisogno di questo...
TL8NkB;A meno che non si cerchi un buon avversario per il kaiwassa. 
uNLDvi;Gioca a kaivassa per soldi 
LJxxhX;Sbarazzati di uccelli 
2DheZS;Compra voci 
kHknTE;Esci a scheda 
t06ukh;Scambio menu 
E3ArJJ;Cambia 10 influenze per 1 udienza 
6t5kF1;Cambia 50 influenze per 5 voci 
VS1dY8;Cambia 100 influenze a 10 voci 
Xhn8m1;Esci dalla mappa 
X0nvcG;Scommesse sui menu 
AOglCY;È troppo tardi, verrò a giocare domani. 
YYGHQE;Puntata: 10 draghi 
P8iD5A;Puntata: 50 draghi 
ICyV8q;Puntata: 100 draghi 
sveZlj;A me sembra che non ci sia nulla da scommettere. Sensazione incredibile 
bhV85k;Esci dalla mappa
g2DTRy;Cyvasse Vittoria 
nA5ZC7;osservazione disfattista 
h79g36;si ottiene il denaro 
9vat4g;Cyvasse sconfitta 
EL5Suz;Osservazione beffarda 
S5Z4oU;Si perde il denaro 
LDzVG4;Menu Re-game 
zgZPzD;Giocare di più, o ne ho avuto abbastanza per oggi? 
Y9GlZU;Gioca di nuovo 
rqrLLS;Lascia la taverna 
8TvVzM;Mio signore, suppongo tu sia venuto seguendo i nostri accordi? 
QJkaEk;Spero che tu condivida informazioni preziose sui tuoi clienti... 
pU77mp;Le loro conversazioni, preferenze e simili... 
PIeg9v;O speri di liberarti di un paio di pettegolezzi sui cittadini? 
mpNBoI;Non sprecare il mio e il tuo tempo, mio ​​signore. Vieni quando ci sarà qualcosa di prezioso...
pG7qls;(Sono richieste almeno 150 influenze.) 
1XvEoj;Non mi hai lasciato scelta. 
y5cWOn;Vieni, ti ho appena offerto una cooperazione reciprocamente vantaggiosa. Vinceremo entrambi. 
ByoJ5s;Vi offro ancora una cooperazione reciprocamente vantaggiosa, ma con la condizione, tuttavia, che non collaborerete con Lord Varys. 
PpOzq2;Condividi le informazioni con me, e in cambio potrò offrirti le mie risorse uniche. 
5R6F9D;Credimi, qui ho molta più influenza di Lord Varys. 
cEi91M;Credo che la scelta sia mia. 
NzAgGD;Ovviamente mio signore. 
MiZzeg;Ma il prodotto sul mercato viene solitamente dato per provare prima di acquistare per assicurarsi della sua qualità. 
l1Xocq;Capisci cosa intendo?
Av2k57;Vuoi testarmi per aptitude? Ti ascolto 
TrGztA;Mi piacerebbe avere accesso regolare a Sansa Stark. 
J2Uy8R;Sansa? Pensavo che il tuo interesse per il porto fosse più vicino ai reali. 
vJ95N5;Quindi mi aiuterete con questo? 
PIxrwx;Bene, sono pronto ad aiutarti con questa domanda. 
gY9Qw4;Sansa ora passa molto tempo nella casa del castello rosso. 
t6V1q9;Ma tu non vuoi apparire in questo posto, ho capito bene? 
q5mOIj;Oh si, hai capito bene il mio signore. 
bD6jQX;Farò in modo che non incontriamo nessuno sulla strada lì e... sulla strada da lì, ovviamente. 
3s14PD;Ma per questo, ovviamente, è richiesta una notevole quantità di oro. Acquista la guardia reale è costoso...
FbzeY6;Cosa, non hai abbastanza oro? 
QsFwAz;Ho avuto un'opinione migliore dei signori di Dornish...
R0qenp;La prossima volta non sprecare il mio tempo invano, mio ​​signore, parla direttamente della tua situazione finanziaria 
ihKxGR;Ti darò la più meritevole delle puttane portuali. 
8w1AUG;(Richiede almeno 3.500 draghi d'oro.) 
UQcNjZ;Bene, sei abbastanza ricco da permettersi un simile intrattenimento. 
inZyKi;Pochi minuti e siamo partiti. 
ctK65x;Vedo che hai trovato rapidamente un linguaggio comune con Lady Sansa. 
cM9R3d;Bene, conosco già la loro famiglia. 
ds4ier;Davvero? Sei stato al nord? 
T1hAve;Sì, ho viaggiato molto durante la mia giovinezza... 
yahMIb;Tuttavia, non importa.
PMWoHa;Quando posso chiederti di incontrarti di nuovo? 
BmpJ3a;Bene, ti ho mostrato il mio adempimento dei miei obblighi. 
mwTBsf;Inoltre, posso aiutarti non solo con Lady Sansa. 
s4QWLQ;Ho sentito che stai cercando invano di conquistare il favore della signora Sangar. 
78ol4i;Come ex capo delle dogane della città di Chayachi e un maestro di monete, potrei aiutarti in questo. 
6vloc1;Inoltre, ho sentito che gestisci una meravigliosa taverna. 
FBjfue;Il posto migliore in città, come si suol dire. Tornei a Dzhagl, ottimo vino... 
oH6qnU;Immagino che ti costa un sacco di soldi. 
IX0raX;Queste sono le mie difficoltà. 
5xl3XY;Sì, ma potrei tranquillamente aiutarli. 
vvyA9T;Tuttavia, come hai detto tu stesso - dipende da te.
ZSK0Z9;Presto incontrerò te, mio ​​signore, spero che tu prenda la decisione giusta. 
Wp1mKA;Bene, Lord Baelish. 
jsEw4N;Milord, com'è andata la riunione? 
fyGz9u;Il ragno è intervenuto oggi... 
wKKDOu;Varys? Apparentemente l'abbiamo toccato... 
ku1Sth;Cosa voleva? 
SlL8cG;Ha avvertito Sans di diffidare di te e me. 
HuchMi;Sansa segue il suo consiglio? 
mUXph0;No, l'ho fatto in modo che non prestasse molta attenzione alle sue parole... 
SqZkXD;È divertente. Bene, aspetteremo la prossima mossa dallo spider 
c559wR;O saremo i primi... Devo pensare, mio ​​signore. 
xH8QZ1;Poi mi ritiro 
SFKaP9;Guardo Sans più e più solidale a te, mio ​​signore
oAInaI;Sì, divento un buon amico per lei 
r6Q0hx;Hai intenzione di rimanere un amico o non vedi l'ora di fare qualcosa di più? 
v0elGH;Come puoi pensarlo, mio ​​signore. Solo amicizia, e niente di più 
XlKsNI;Mi piacerebbe crederti, mio ​​signore, ma qualcosa mi dice che sei astuto
qq02QH;Non dubitare dei miei pensieri, Lord Belylish. 
aEV1Sr;Andrò con il tuo permesso 
oanoyU;Il mignolo non è interessato a incontrarsi ancora... 
JxXVES;Sono necessarie maggiori informazioni sulle persone di alto rango. 
PdRDtT;Sono necessarie almeno 200 influenze. 
gy5CE2;Oh mio signore, non vedevo l'ora di vedere 
zQMQxh;Lord Belylish. 
9Dw236;Incontro con Sans?
ZDUL6z;Sì, penso che Sansa vorrebbe chiacchierare di nuovo con me. 
vo6yyE;Che mi dici dell'oro per la guardia? 
j8N3nd;Dannazione, non ho ancora calcolato l'oro... 
cdFNYp;Sono necessari almeno 10.000 draghi d'oro.
ZDeGgY;Hold. Questi incontri mi sono costati caro... 
MyU1Sm;Sembra che il mio mignolo non sia dell'umore giusto per uscire con me. 
gge9m9;Bene, okay, se il Clegan non va a Lannister... 
p0HTbr;Inizio 
eHN8rD;Bene, devi ingannare te stesso, non darti... " 
BcjWun;Buon giorno Horus. 
gC2nnD;Oh wey, giovane Lord è tornato al mio negozio! 
KNoKNo;Cosa devo di tanto piacere? 
DhOj80;Ho bisogno di un buon argento per coprire il metallo.
Wo0GdV;E anche i seguenti inlay. Ecco una lista e immagini. 
s3cxFJ;Milord, ho un tale argento che non troverai nulla di meglio in tutti e sette i regni. 
iJ9yTA;In modo che tu sappia oltre il mio argento, salpano da dietro il mare stretto. 
ZekDWz;La Vecchia Montagna ha un tale argento che la comprano più dell'oro, credetemi. 
mnoOKm;Quindi sapevo che questi gioiellieri mi avevano rovinato i nervi a Dorn.
wly2Yn;Probabilmente ti chiedi il prezzo per l'oro? 
BJkEWq;Potrebbe essere più facile per me andare a dare al fabbro il drago d'oro per essere fuso? 
KqhmIV;Mio signore, offendi il vecchio Horus. 
QWAxNV;Chiederei tanto denaro per l'argento quanto per l'oro? 
qLR4ck;Non mi consideri più un vecchio truffatore!
yMfSsk;Chiederò solo la metà dell'oro e quello, solo perché il vecchio Gore conosce il valore del suo argento. 
8vkSNn;Sì, impudenza non si tiene il vecchio. 
Getd8O;Ricorda, ho ancora bisogno di elementi decorativi. 
B678tc;Milord, il vecchio Gore faceva questi ornamenti che, essendo entrato in un castello rosso, ogni persona illustre sarebbe stata decorata con i miei anelli e anelli. 
EHvzNj;Perché c'è da sapere, la regina reggente stessa ha ordinato la corona della vecchia montagna, ecco a chi hai a che fare! 
7p2mf2;Okay, chiederò alla regina ogni tanto se questo è vero. 
td6i4b;Quanto vuoi per tutto? 
wLMKgn;Duecento monete d'oro saranno più che sufficienti per tutto, mio ​​signore 
Di8I8S;Beh, vecchio, tieni i disegni, e mi piacerebbe avere l'argento adesso. Non deludermi.
LYvVQX;Voglio ottenere le migliori decorazioni per la sala, le persone a disagio verranno da me. 
NwbSB2;Non preoccuparti, mio ​​signore, il risultato sarà che raccomanderai comunque la vecchia montagna! 
Os8b0q;Penso che mi manchi l'oro... 
RpJ5iG;Scusa, vecchio, mi sembra di aver dimenticato l'oro 
Y5QjxY;Oh, abbiamo un problema... mi dispiace, giovane signore, Gore è troppo vecchio per lavorare in debito. 
x64XOl;Oi vey, giovanotto! 
MiRWAW;Seven ti ha guidato consapevolmente nel mio negozio, perché sei venuto sulla vecchia montagna. 
SjnaCQ;E questo è il miglior gioielliere dei sette regni. 
lMEJ27;Saluti vecchio. 
9vEctl;Cosa vuole il giovane signore? 
vHsP6f;Old Gore fa tutto al massimo livello.
k6cGUo;Anelli, anelli, gioielli. Qualunque cosa tu desideri, la vecchia Gore ha persino fatto la corona a re Robert! 
6c0lK4;Forse è troppo presto per la corona, vecchio. 
tbPePK;Ma forse avrò bisogno di alcuni servizi, ma più tardi. 
E5XPZf;Questi gioiellieri fanno ottimi giocattoli sessuali per i miei bordelli
QfrLEy;Penso di attrarre questo vecchio quando apro il mio stabilimento
wZfcKg;Qualunque cosa voglia il giovane gentiluomo. 
S4igvG;Il prezzo sarà piuttosto grande, ma solo i livelli più alti della società possono permettersi i servizi della vecchia montagna. 
dPkMgx;Oh, senza dubbio. 
TPrn2w;Beh, felice di incontrarti vecchio, ma devo andare. 
8YxJdM;Guarda indietro, milord. Old Gore aspetterà il tuo ritorno.
A49Eju;Buon pomeriggio mio signore. Sei tornato velocemente. 
oyTnSA;E perché sono tornato?
lFrWQ4;Il vecchio non mi lascerà andare senza fare shopping questa volta, deve urgentemente saltare i piedi
Zs7tJj;Scusatemi vecchio, di recente e per sbaglio ho perso la strada nel porto. 
US0ZyH;Ma puoi ordinare da me... 
4TOKYw;Scusa, ricordati di una questione urgente, devi correre! 
UXMvuw;Milord, vuoi assolutamente comprare qualcosa dal vecchio Horus. 
jjGH0o;Sì, il settimo inferno, di nuovo mi ha portato qui
Mw17Mg;Perdonami vecchio, mi sembra di essere di nuovo perso. 
QWZvWI;Ma il vecchio Gore pensa che tu voglia... 
RGQCk7;No, no, devo andare , a presto! 
n77ABW;Menu Gioielliere 
b8E54l;Esci su mappa