﻿Id;Translation;Bdl name;Optional description
Narrator;Narrator;Нарратор;
Player;Oyuncu;Игрок;
attribute_authority;Yetki
attribute_gossip;Dedikodu
attribute_money;Para
Katherin;Catelyn;Кейтрин;
attribute_relationship;Relationship;;
attribute_husband_memory;Husb. memory;;
Manaoth;Manaoth;Манаот;
attribute_satisfaction;Satiscfaction;;
Guard;Guard;Охранник;
Host;Innkeeper;Трактирщик;
OldMan;Old man;Old man;
Trap;Trap;Ловушка;
MoulderingBranch;weirwood branch;Трухлявая ветка;
ShoeOfDeath;Shoe of death;Башмак смерти;
SockOfTrueShame;Sock of true shame;Носок истинного позора;
WuClanArmor;Wu clan armor;Доспех клана Ву;
SwordGrease;Sword grease;Жировая смазка для меча;
ValyrianDagger;Valyrian dagger;Валирийский кинжал;
WildGirl;Wildling;Одичалая;
Lamp;Lamp;Лампа;
Torch;Torch;Факел;
SwordGreaseSpecial;Special sword grease;Особая жировая смазка для меча;
PerfumeSpecial;Unusual herbal perfume;Редкий парфюм из трав;
city_day;Gün;;
city_daypart_morning;sabah;;
city_daypart_day;gunduz;;
city_daypart_evening;ksam;;
city_daypart_night;gece;;
city_questlog;Dergi
menu_new;New game;;
menu_continue;Continue;;
menu_load;Load;;
menu_authors;Authors;;
menu_exit;Quit;;
menu_save;Save;;
menu_back;Back;;
chapter_prologue;Prologue;;
chapter_chapter1;Chapter 1;;
dialog_skip;Atlama;;
dialog_chooseyourname;YOUR NAME;;
dialog_skipping;Atlama...
cyvasse_startgame;Oyunu başlatmak
cyvasse_randomplacement;Rastgele yerleşim
cyvasse_victory;zafer!
cyvasse_defeat;yenilgi!
cyvasse_loadlastplacement;Son yerleşimi yükle
raben_left;Left;;
raben_done;Well done!;;
raben_shame;Too late, try again.;;
raben_pressesc;(Press Esc to quit from this place);;
prologue_hunt;Go hunting
prologue_village;Walk towards the peasant houses
prologue_tower;To the tower of Meister for letters
prologue_castle;Visit Catelyn in castle
prologue_dungeon;Inspect the dungeon
prologue_tree;In godswood
prologue_tavern;Peek into the tavern
prologue_well;Go to the well
prologue_home;Your chambers
prologue_manaoth;To master of hunt Manaoth
prologue_horse;Equip a horse to leave Winterfell
chapters_new;new
Dorn;Dorn;Dorn;
striptease;Striptease;;
massage;Massage;;
classic;Classic;;
anal;Anal;;
deep_throating;Deep throating;;
lesbian;Lesbian sex;;
cunnilingus;Cunnilingus;;
strapon;Strapon;;
mistress;Mistress;;
slave;Slave;;
spanking;Spanking;;
fisting;Fisting;;
rimming;Rimming;;
Upon_this_rock1;And on this stone (1) - I need a building for a brothel to attract the attention of Beilish. People can be hired in a tavern, there will always be a couple of free hands. You will most likely have to meet with the head of the customs of the port ...
Career_guidance;Career Guidance - Brothel bought and restored, but someone has to work in it. The guys in the tavern pointed to Elvira - quite a nice girl, it remains to persuade her to change her profession.
Still_waters;In the still waters ... - As Tiena said, not quite holy things are happening in a convent. Girl Lane is actively involved in orgies with the guards, it remains to convince her to do it for my money.
Never_late;Never too late - the girls are hired, now you need to train them in the proper treatment of men. I need a good authority to reach out to the best people of the city. I suppose Tyena will help me with this, did not see that someone could start men like her ...
Grand_opening; Grand Opening - Well, everything is almost ready, the girls are trained. You need wine to treat guests, Ms. Sangar is required to visit.
Agressive_expansion;The energetic expansion of the Tavern is empty, and very vain, this is a great place to collect rumors. Let the guys are engaged in repair, I again need to Sangar ...
progress_quests;Görevler
progress_scenes;Sahneler
progress_achievements;Başarılar
progress_overall;Genel ilerleme
settings_fullscreen;Tam ekran
settings_borderless;Çerçevesiz*
settings_display;Görüntüle*
settings_uilang;Arayüz dili
settings_txlang;İletişim kutuları dili
settings_yes;Evet
settings_no;Yok
settings_hint_needrestart;If you change setting with *, the game will be restarted automatically
settings_hint_quicksave;F8 - quick save
settings_hint_quickload;F11 - quick load
settings_hint_skip;LCtrl - skipping
birds_left;Ayrıldı
birds_done;Bitti!
birds_pressesc;Devam etmek için Esc tuşuna basın.
birds_shame;Utanç!
customer_citizen;hemşehri
customer_guard;bekçi
customer_kingguard;Kral Muhafız
customer_kingcavalry;Kral Süvari
customer_courtier;Nedim
customer_fraulein;Frolayn
customer_commander;kumandan
customer_lord;Kral
customer_lady;Hanımefendi
Cersei;Cersei;Серсея
Sansa;Sansa;Санса
Tiena;Tiena;Тиена
Elvira;Elvira;Эльвира
Leyna;Leyna;Лейна
Iren0;Atelier owner;Владелица ателье
Iren;Iren;Ирэн
Madam0;Manager;Управляющая
Madam;Madam;Мадам
Sungar0;Master of ships;Мастер над кораблями
Sungar;Mistress Sungar;Госпожа Сангар
achievement_One_brothel_is_good_two_is_better;One brothel is good two is better
achievement_What_do_you_have_on_your_mind_on_your_tongue;What do you have on your mind on your tongue
achievement_Northerner;Northerner
achievement_Royal_lover;Royal lover
achievement_Grand_Master;Grand Master
achievement_Arthur_Dane_can_sleep_well;Arthur Dane can sleep well
achievement_Master_over_the_coin;Master over the coin
achievement_Two_spiders_in_a_can;Two spiders in a can
achievement_This_is_my_city;This is my city
bordel_power;Genelev gücü